(module LED_SunLED_PLCC4_3.2x2.8mm_P1.45mm (layer F.Cu) (tedit 5C66A686)
  (descr https://www.sunledusa.com/products/spec/XZMDKCBDDG45S-9.pdf)
  (attr smd)
  (fp_text reference REF** (at 0 -2.5) (layer F.SilkS)
    (effects (font (size 1 1) (thickness 0.15)))
  )
  (fp_text value LED_SunLED_PLCC4_3.2x2.8mm_P1.45mm (at 0 2.6) (layer F.Fab)
    (effects (font (size 1 1) (thickness 0.15)))
  )
  (fp_line (start -3.5 1.8) (end -3.5 -1.8) (layer F.CrtYd) (width 0.05))
  (fp_line (start 3.5 1.8) (end -3.5 1.8) (layer F.CrtYd) (width 0.05))
  (fp_line (start 3.5 -1.8) (end 3.5 1.8) (layer F.CrtYd) (width 0.05))
  (fp_line (start -3.5 -1.8) (end 3.5 -1.8) (layer F.CrtYd) (width 0.05))
  (fp_line (start -3.5 -1.7) (end 3.5 -1.7) (layer F.SilkS) (width 0.15))
  (fp_line (start 3.5 -1.7) (end 3.5 -1.3) (layer F.SilkS) (width 0.15))
  (fp_line (start 3.5 1.7) (end -3.5 1.7) (layer F.SilkS) (width 0.15))
  (pad "" np_thru_hole circle (at 0 0) (size 3.2 3.2) (drill 3.2) (layers *.Cu *.Mask))
  (pad 4 smd rect (at 2.6 0.725) (size 1.4 0.8) (layers F.Cu F.Paste F.Mask))
  (pad 3 smd rect (at -2.6 0.725) (size 1.4 0.8) (layers F.Cu F.Paste F.Mask))
  (pad 2 smd rect (at -2.6 -0.725) (size 1.4 0.8) (layers F.Cu F.Paste F.Mask))
  (pad 1 smd rect (at 2.6 -0.725) (size 1.4 0.8) (layers F.Cu F.Paste F.Mask))
)
