(module microSD_HC_Molex_473093351 (layer F.Cu) (tedit 5C6D967D)
  (descr https://www.molex.com/pdm_docs/sd/473093351_sd.pdf)
  (attr smd)
  (fp_text reference REF** (at 0 -2.5) (layer F.SilkS)
    (effects (font (size 1 1) (thickness 0.15)))
  )
  (fp_text value microSD_HC_Molex_473093351 (at 0 15.25) (layer F.Fab)
    (effects (font (size 1 1) (thickness 0.15)))
  )
  (fp_line (start -5.4 -1.325) (end 6 -1.325) (layer F.SilkS) (width 0.15))
  (fp_line (start -4.2 4.175) (end 4.1 4.175) (layer F.SilkS) (width 0.15))
  (fp_line (start -5.4 -1.325) (end -5.4 0.3) (layer F.SilkS) (width 0.15))
  (fp_line (start 6 3.475) (end 6 4.175) (layer F.SilkS) (width 0.15))
  (fp_line (start 6 -1.325) (end 6 4.175) (layer F.CrtYd) (width 0.05))
  (fp_line (start -5.4 -1.325) (end 6 -1.325) (layer F.CrtYd) (width 0.05))
  (fp_line (start -5.4 4.175) (end 6 4.175) (layer F.CrtYd) (width 0.05))
  (fp_line (start -5.4 -1.325) (end -5.4 4.175) (layer F.CrtYd) (width 0.05))
  (fp_line (start 6 -1.325) (end 6 0.75) (layer F.SilkS) (width 0.15))
  (fp_line (start 5.45 4.175) (end 6 4.175) (layer F.SilkS) (width 0.15))
  (fp_line (start -4 13.975) (end 5.3 13.975) (layer Dwgs.User) (width 0.1))
  (fp_line (start -4.85 4.5) (end -4.85 13.125) (layer Dwgs.User) (width 0.1))
  (fp_line (start 6.15 4.5) (end 6.15 13.125) (layer Dwgs.User) (width 0.1))
  (fp_arc (start -4 13.125) (end -4.85 13.125) (angle -90) (layer Dwgs.User) (width 0.1))
  (fp_arc (start 5.3 13.125) (end 6.15 13.125) (angle 90) (layer Dwgs.User) (width 0.1))
  (pad 5 smd rect (at -0.55 0) (size 0.6 1.25) (layers F.Cu F.Paste F.Mask))
  (pad 4 smd rect (at 0.55 0) (size 0.6 1.25) (layers F.Cu F.Paste F.Mask))
  (pad 3 smd rect (at 1.65 0) (size 0.6 1.25) (layers F.Cu F.Paste F.Mask))
  (pad 6 smd rect (at -1.65 0) (size 0.6 1.25) (layers F.Cu F.Paste F.Mask))
  (pad 2 smd rect (at 2.75 0) (size 0.6 1.25) (layers F.Cu F.Paste F.Mask))
  (pad 1 smd rect (at 3.85 0) (size 0.6 1.25) (layers F.Cu F.Paste F.Mask))
  (pad 7 smd rect (at -2.75 0) (size 0.6 1.25) (layers F.Cu F.Paste F.Mask))
  (pad 8 smd rect (at -3.85 0) (size 0.6 1.25) (layers F.Cu F.Paste F.Mask))
  (pad 11 smd rect (at -5 2.48) (size 1.2 3.79) (layers F.Cu F.Paste F.Mask))
  (pad 11 smd rect (at 5.475 1.725) (size 1.45 1.4) (layers F.Cu F.Paste F.Mask))
  (pad 9 smd rect (at 5.7 2.975) (size 1 0.6) (layers F.Cu F.Paste F.Mask))
  (pad 10 smd rect (at 4.775 3.95) (size 0.95 0.85) (layers F.Cu F.Paste F.Mask))
)
