(module MountingHole_1.5mm_M1.4 (layer F.Cu) (tedit 5C66A78A)
  (descr "Mounting Hole 1.5mm, no annular, M1.4")
  (tags "mounting hole 1.5mm no annular m1.4")
  (attr virtual)
  (fp_text reference REF** (at 0 -2.85) (layer F.SilkS)
    (effects (font (size 1 1) (thickness 0.15)))
  )
  (fp_text value MountingHole_1.5mm_M1.4 (at 0 2.85) (layer F.Fab)
    (effects (font (size 1 1) (thickness 0.15)))
  )
  (fp_circle (center 0 0) (end 1.67 0) (layer F.CrtYd) (width 0.05))
  (fp_circle (center 0 0) (end 1.5 0) (layer Cmts.User) (width 0.15))
  (fp_text user %R (at 0.3 0) (layer F.Fab)
    (effects (font (size 1 1) (thickness 0.15)))
  )
  (pad "" np_thru_hole circle (at 0 0) (size 1.5 1.5) (drill 1.5) (layers *.Cu *.Mask))
)
