EESchema Schematic File Version 4
LIBS:f100-cache
EELAYER 26 0
EELAYER END
$Descr A4 11693 8268
encoding utf-8
Sheet 1 3
Title "Power & Buttons"
Date "2019-02-09"
Rev "1"
Comp ""
Comment1 ""
Comment2 ""
Comment3 ""
Comment4 ""
$EndDescr
$Comp
L power:GND #PWR0101
U 1 1 5C5DB7A4
P 2500 2700
F 0 "#PWR0101" H 2500 2450 50  0001 C CNN
F 1 "GND" H 2505 2527 50  0000 C CNN
F 2 "" H 2500 2700 50  0001 C CNN
F 3 "" H 2500 2700 50  0001 C CNN
	1    2500 2700
	1    0    0    -1  
$EndComp
$Comp
L Device:L L1
U 1 1 5C5DB91E
P 3150 2200
F 0 "L1" V 3340 2200 50  0000 C CNN
F 1 "4.7uH" V 3249 2200 50  0000 C CNN
F 2 "Footprints:L_1008_2520Metric" H 3150 2200 50  0001 C CNN
F 3 "https://www.murata.com/~/media/webrenewal/products/inductor/chip/tokoproducts/wirewoundmetalalloychiptype/m_dfe252012p.ashx" H 3150 2200 50  0001 C CNN
	1    3150 2200
	0    -1   -1   0   
$EndComp
$Comp
L pam2301caab330:PAM2301CAAB330 U4
U 1 1 5C5DB65C
P 2500 2300
F 0 "U4" H 2500 2667 50  0000 C CNN
F 1 "PAM2301CAAB330" H 2500 2576 50  0000 C CNN
F 2 "Package_TO_SOT_SMD:SOT-23-5" H 2550 2050 50  0001 L CNN
F 3 "https://www.diodes.com/assets/Datasheets/PAM2301.pdf" H 2550 1950 50  0001 L CNN
	1    2500 2300
	1    0    0    -1  
$EndComp
Wire Wire Line
	2900 2400 3400 2400
Wire Wire Line
	3400 2400 3400 2200
Wire Wire Line
	3000 2200 2900 2200
Connection ~ 3400 2200
$Comp
L power:+3.3V #PWR0102
U 1 1 5C5DBB61
P 3600 2200
F 0 "#PWR0102" H 3600 2050 50  0001 C CNN
F 1 "+3.3V" V 3615 2328 50  0000 L CNN
F 2 "" H 3600 2200 50  0001 C CNN
F 3 "" H 3600 2200 50  0001 C CNN
	1    3600 2200
	0    1    1    0   
$EndComp
Wire Wire Line
	2100 2200 2000 2200
Wire Wire Line
	2000 2200 2000 2400
Wire Wire Line
	2000 2400 2100 2400
$Comp
L power:VBUS #PWR0103
U 1 1 5C5DC054
P 1100 1500
F 0 "#PWR0103" H 1100 1350 50  0001 C CNN
F 1 "VBUS" H 1115 1673 50  0000 C CNN
F 2 "" H 1100 1500 50  0001 C CNN
F 3 "" H 1100 1500 50  0001 C CNN
	1    1100 1500
	1    0    0    -1  
$EndComp
$Comp
L Device:D_Schottky D1
U 1 1 5C5DC1FA
P 1350 2200
F 0 "D1" H 1350 1984 50  0000 C CNN
F 1 "40V/1A" H 1350 2075 50  0000 C CNN
F 2 "Diode_SMD:D_SOD-123" H 1350 2200 50  0001 C CNN
F 3 "https://assets.nexperia.com/documents/data-sheet/PMEG4010CEGW.pdf" H 1350 2200 50  0001 C CNN
	1    1350 2200
	-1   0    0    1   
$EndComp
Wire Wire Line
	1600 2000 1600 2200
Wire Wire Line
	1600 2200 1500 2200
Wire Wire Line
	1200 2200 1100 2200
Wire Wire Line
	1100 2200 1100 1800
Wire Wire Line
	1100 1800 1300 1800
Connection ~ 1100 1800
$Comp
L power:+BATT #PWR0104
U 1 1 5C5DCCEC
P 1600 1500
F 0 "#PWR0104" H 1600 1350 50  0001 C CNN
F 1 "+BATT" H 1615 1673 50  0000 C CNN
F 2 "" H 1600 1500 50  0001 C CNN
F 3 "" H 1600 1500 50  0001 C CNN
	1    1600 1500
	1    0    0    -1  
$EndComp
Wire Wire Line
	1600 1500 1600 1600
Wire Wire Line
	1100 1500 1100 1800
Connection ~ 1600 2200
Connection ~ 2000 2200
Wire Wire Line
	1600 2200 1600 2350
Wire Wire Line
	1600 2550 1600 2650
$Comp
L Device:R_Small R18
U 1 1 5C5DEBDE
P 1100 2400
F 0 "R18" H 1159 2446 50  0000 L CNN
F 1 "100k/5%" H 1159 2355 50  0000 L CNN
F 2 "Resistor_SMD:R_0603_1608Metric" H 1100 2400 50  0001 C CNN
F 3 "~" H 1100 2400 50  0001 C CNN
	1    1100 2400
	1    0    0    -1  
$EndComp
Wire Wire Line
	1100 2200 1100 2300
Connection ~ 1100 2200
Wire Wire Line
	1100 2500 1100 2650
Wire Wire Line
	1100 2650 1600 2650
Wire Wire Line
	3500 2550 3500 2650
Wire Wire Line
	3500 2200 3500 2350
Wire Wire Line
	3500 2200 3600 2200
Connection ~ 3500 2200
Wire Wire Line
	3400 2200 3500 2200
Wire Wire Line
	3300 2200 3400 2200
Wire Wire Line
	2500 2600 2500 2650
Connection ~ 2500 2650
Wire Wire Line
	2500 2650 2500 2700
Wire Wire Line
	3500 2650 2500 2650
$Comp
L power:+BATT #PWR0105
U 1 1 5C5E3CEF
P 8100 1900
F 0 "#PWR0105" H 8100 1750 50  0001 C CNN
F 1 "+BATT" V 8115 2028 50  0000 L CNN
F 2 "" H 8100 1900 50  0001 C CNN
F 3 "" H 8100 1900 50  0001 C CNN
	1    8100 1900
	0    1    1    0   
$EndComp
$Comp
L power:GND #PWR0106
U 1 1 5C5E3D40
P 6800 2700
F 0 "#PWR0106" H 6800 2450 50  0001 C CNN
F 1 "GND" H 6805 2527 50  0000 C CNN
F 2 "" H 6800 2700 50  0001 C CNN
F 3 "" H 6800 2700 50  0001 C CNN
	1    6800 2700
	1    0    0    -1  
$EndComp
$Comp
L power:VBUS #PWR0107
U 1 1 5C5E3D8F
P 6200 1700
F 0 "#PWR0107" H 6200 1550 50  0001 C CNN
F 1 "VBUS" V 6215 1827 50  0000 L CNN
F 2 "" H 6200 1700 50  0001 C CNN
F 3 "" H 6200 1700 50  0001 C CNN
	1    6200 1700
	0    -1   -1   0   
$EndComp
$Comp
L Device:R_Small R16
U 1 1 5C5E6A6A
P 7500 2100
F 0 "R16" H 7559 2146 50  0000 L CNN
F 1 "100k/1%" H 7559 2055 50  0000 L CNN
F 2 "Resistor_SMD:R_0603_1608Metric" H 7500 2100 50  0001 C CNN
F 3 "~" H 7500 2100 50  0001 C CNN
	1    7500 2100
	1    0    0    -1  
$EndComp
$Comp
L Device:R_Small R17
U 1 1 5C5E6B19
P 7500 2500
F 0 "R17" H 7559 2546 50  0000 L CNN
F 1 "100k/1%" H 7559 2455 50  0000 L CNN
F 2 "Resistor_SMD:R_0603_1608Metric" H 7500 2500 50  0001 C CNN
F 3 "~" H 7500 2500 50  0001 C CNN
	1    7500 2500
	1    0    0    -1  
$EndComp
Wire Wire Line
	7500 1900 7500 2000
Wire Wire Line
	7500 2600 7500 2700
Connection ~ 6800 2700
$Comp
L Device:C_Small C36
U 1 1 5C5E939F
P 8000 2500
F 0 "C36" H 8092 2546 50  0000 L CNN
F 1 "100nF" H 8092 2455 50  0000 L CNN
F 2 "Capacitor_SMD:C_0603_1608Metric" H 8000 2500 50  0001 C CNN
F 3 "~" H 8000 2500 50  0001 C CNN
	1    8000 2500
	1    0    0    -1  
$EndComp
Wire Wire Line
	7500 2300 8000 2300
Wire Wire Line
	8000 2600 8000 2700
Wire Wire Line
	8000 2700 7500 2700
Connection ~ 7500 2700
Wire Wire Line
	7500 2200 7500 2300
Wire Wire Line
	8000 2300 8000 2400
Wire Wire Line
	7500 2300 7500 2400
Connection ~ 7500 2300
Wire Wire Line
	7300 2600 7300 2700
Wire Wire Line
	6800 2300 6800 2700
Text GLabel 8100 2300 2    50   Output ~ 0
BATT_VOLTAGE
Wire Wire Line
	8000 2300 8100 2300
Connection ~ 8000 2300
$Comp
L Battery_Management:MCP73831-2-OT U5
U 1 1 5C5E3855
P 6800 2000
F 0 "U5" H 6800 2478 50  0000 C CNN
F 1 "MCP73832-2-OT" H 6800 2387 50  0000 C CNN
F 2 "Package_TO_SOT_SMD:SOT-23-5" H 6850 1750 50  0001 L CIN
F 3 "http://ww1.microchip.com/downloads/en/DeviceDoc/20001984g.pdf" H 6650 1950 50  0001 C CNN
	1    6800 2000
	1    0    0    -1  
$EndComp
Wire Wire Line
	6300 1700 6300 1800
Wire Wire Line
	7300 1900 7500 1900
Wire Wire Line
	7300 1900 7200 1900
Connection ~ 7300 1900
Wire Wire Line
	7300 1900 7300 2400
Text GLabel 8100 1700 2    50   Output ~ 0
BATT_CHARGED
$Comp
L Connector_Generic:Conn_01x02 J5
U 1 1 5C5FFD68
P 9950 1900
F 0 "J5" H 10030 1892 50  0000 L CNN
F 1 "0532610271" H 10030 1801 50  0000 L CNN
F 2 "Connector_Molex:Molex_PicoBlade_53261-0271_1x02-1MP_P1.25mm_Horizontal" H 9950 1900 50  0001 C CNN
F 3 "https://www.molex.com/pdm_docs/sd/532610271_sd.pdf" H 9950 1900 50  0001 C CNN
	1    9950 1900
	1    0    0    -1  
$EndComp
$Comp
L power:+BATT #PWR0108
U 1 1 5C6014C7
P 9650 1900
F 0 "#PWR0108" H 9650 1750 50  0001 C CNN
F 1 "+BATT" V 9665 2027 50  0000 L CNN
F 2 "" H 9650 1900 50  0001 C CNN
F 3 "" H 9650 1900 50  0001 C CNN
	1    9650 1900
	0    -1   -1   0   
$EndComp
$Comp
L power:GND #PWR0109
U 1 1 5C60154A
P 9650 2000
F 0 "#PWR0109" H 9650 1750 50  0001 C CNN
F 1 "GND" V 9655 1872 50  0000 R CNN
F 2 "" H 9650 2000 50  0001 C CNN
F 3 "" H 9650 2000 50  0001 C CNN
	1    9650 2000
	0    1    1    0   
$EndComp
Wire Wire Line
	9650 1900 9750 1900
Wire Wire Line
	9650 2000 9750 2000
$Comp
L Device:C_Small C39
U 1 1 5C608AAC
P 7300 2500
F 0 "C39" H 7392 2546 50  0000 L CNN
F 1 "1uF/16V" H 7392 2455 50  0000 L CNN
F 2 "Capacitor_SMD:C_0603_1608Metric" H 7300 2500 50  0001 C CNN
F 3 "~" H 7300 2500 50  0001 C CNN
	1    7300 2500
	-1   0    0    -1  
$EndComp
$Comp
L Device:R_Small R13
U 1 1 5C616BDA
P 5300 2300
F 0 "R13" H 5359 2346 50  0000 L CNN
F 1 "2.5k/5%" H 5359 2255 50  0000 L CNN
F 2 "Resistor_SMD:R_0603_1608Metric" H 5300 2300 50  0001 C CNN
F 3 "~" H 5300 2300 50  0001 C CNN
	1    5300 2300
	1    0    0    -1  
$EndComp
$Comp
L Device:R_Small R15
U 1 1 5C616CAA
P 5800 2300
F 0 "R15" H 5859 2346 50  0000 L CNN
F 1 "10k/5%" H 5859 2255 50  0000 L CNN
F 2 "Resistor_SMD:R_0603_1608Metric" H 5800 2300 50  0001 C CNN
F 3 "~" H 5800 2300 50  0001 C CNN
	1    5800 2300
	1    0    0    -1  
$EndComp
$Comp
L Device:Q_NMOS_DGS Q3
U 1 1 5C61C07C
P 5200 2700
F 0 "Q3" H 5405 2746 50  0000 L CNN
F 1 "AO3414" H 5405 2655 50  0000 L CNN
F 2 "Package_TO_SOT_SMD:SOT-23" H 5400 2800 50  0001 C CNN
F 3 "http://aosmd.com/res/data_sheets/AO3414.pdf" H 5200 2700 50  0001 C CNN
	1    5200 2700
	1    0    0    -1  
$EndComp
$Comp
L power:GND #PWR0110
U 1 1 5C61CCEE
P 5300 3000
F 0 "#PWR0110" H 5300 2750 50  0001 C CNN
F 1 "GND" H 5305 2827 50  0000 C CNN
F 2 "" H 5300 3000 50  0001 C CNN
F 3 "" H 5300 3000 50  0001 C CNN
	1    5300 3000
	1    0    0    -1  
$EndComp
Wire Wire Line
	5300 2900 5300 3000
Wire Wire Line
	5300 3000 5800 3000
Wire Wire Line
	5800 3000 5800 2400
Connection ~ 5300 3000
Wire Wire Line
	5300 2500 5300 2400
Wire Wire Line
	5300 2100 5300 2200
Wire Wire Line
	5800 2200 5800 2100
Wire Wire Line
	5800 2100 5300 2100
Text GLabel 4900 2700 0    50   Input ~ 0
BATT_CURRENT
Wire Wire Line
	4900 2700 5000 2700
Text GLabel 1100 5050 1    50   Input ~ 0
BTN_OUT0
Text GLabel 1800 5050 1    50   Input ~ 0
BTN_OUT1
Text GLabel 2600 5050 1    50   Input ~ 0
BTN_OUT2
$Comp
L Switch:SW_Push SW3
U 1 1 5C6330E0
P 1400 5400
F 0 "SW3" H 1400 5685 50  0000 C CNN
F 1 "UP" H 1400 5594 50  0000 C CNN
F 2 "Footprints:Button_DPAD_5.2mm" H 1400 5600 50  0001 C CNN
F 3 "" H 1400 5600 50  0001 C CNN
	1    1400 5400
	1    0    0    -1  
$EndComp
Wire Wire Line
	1100 5050 1100 5400
Wire Wire Line
	1100 5400 1200 5400
$Comp
L Switch:SW_Push SW7
U 1 1 5C63DCC2
P 2100 5400
F 0 "SW7" H 2100 5685 50  0000 C CNN
F 1 "B" H 2100 5594 50  0000 C CNN
F 2 "Footprints:Button_Circle_5.6mm" H 2100 5600 50  0001 C CNN
F 3 "" H 2100 5600 50  0001 C CNN
	1    2100 5400
	1    0    0    -1  
$EndComp
Wire Wire Line
	1800 5050 1800 5400
Wire Wire Line
	1800 5400 1900 5400
Wire Wire Line
	1600 5400 1700 5400
Wire Wire Line
	1700 5400 1700 5500
Wire Wire Line
	1700 5500 2400 5500
Wire Wire Line
	2300 5400 2400 5400
Wire Wire Line
	2400 5400 2400 5500
$Comp
L Switch:SW_Push SW11
U 1 1 5C6458FB
P 2900 5400
F 0 "SW11" H 2900 5685 50  0000 C CNN
F 1 "HOME" H 2900 5594 50  0000 C CNN
F 2 "Footprints:Button_Rectangle_9.3x4.4mm" H 2900 5600 50  0001 C CNN
F 3 "" H 2900 5600 50  0001 C CNN
	1    2900 5400
	1    0    0    -1  
$EndComp
Wire Wire Line
	3100 5400 3200 5400
Wire Wire Line
	3200 5400 3200 5500
Wire Wire Line
	3200 5500 2400 5500
Connection ~ 2400 5500
Wire Wire Line
	2600 5050 2600 5400
Wire Wire Line
	2600 5400 2700 5400
Wire Wire Line
	3200 5500 3300 5500
Connection ~ 3200 5500
$Comp
L Switch:SW_Push SW4
U 1 1 5C653C94
P 1400 5850
F 0 "SW4" H 1400 6135 50  0000 C CNN
F 1 "DOWN" H 1400 6044 50  0000 C CNN
F 2 "Footprints:Button_DPAD_5.2mm" H 1400 6050 50  0001 C CNN
F 3 "" H 1400 6050 50  0001 C CNN
	1    1400 5850
	1    0    0    -1  
$EndComp
Wire Wire Line
	1100 5850 1200 5850
$Comp
L Switch:SW_Push SW8
U 1 1 5C653C9F
P 2100 5850
F 0 "SW8" H 2100 6135 50  0000 C CNN
F 1 "A" H 2100 6044 50  0000 C CNN
F 2 "Footprints:Button_Circle_5.6mm" H 2100 6050 50  0001 C CNN
F 3 "" H 2100 6050 50  0001 C CNN
	1    2100 5850
	1    0    0    -1  
$EndComp
Wire Wire Line
	1600 5850 1700 5850
Wire Wire Line
	1700 5850 1700 5950
Wire Wire Line
	1700 5950 2400 5950
Wire Wire Line
	2300 5850 2400 5850
Wire Wire Line
	2400 5850 2400 5950
$Comp
L Switch:SW_Push SW12
U 1 1 5C653CAD
P 2900 5850
F 0 "SW12" H 2900 6135 50  0000 C CNN
F 1 "VOLUME" H 2900 6044 50  0000 C CNN
F 2 "Footprints:Button_Rectangle_9.3x4.4mm" H 2900 6050 50  0001 C CNN
F 3 "" H 2900 6050 50  0001 C CNN
	1    2900 5850
	1    0    0    -1  
$EndComp
Wire Wire Line
	3100 5850 3200 5850
Wire Wire Line
	3200 5850 3200 5950
Wire Wire Line
	3200 5950 2400 5950
Connection ~ 2400 5950
Wire Wire Line
	2600 5850 2700 5850
Wire Wire Line
	3200 5950 3300 5950
Connection ~ 3200 5950
Wire Wire Line
	1100 5400 1100 5850
Connection ~ 1100 5400
Wire Wire Line
	1800 5400 1800 5850
Connection ~ 1800 5400
Wire Wire Line
	2600 5400 2600 5850
Connection ~ 2600 5400
$Comp
L Switch:SW_Push SW5
U 1 1 5C668746
P 1400 6300
F 0 "SW5" H 1400 6585 50  0000 C CNN
F 1 "LEFT" H 1400 6494 50  0000 C CNN
F 2 "Footprints:Button_DPAD_5.2mm" H 1400 6500 50  0001 C CNN
F 3 "" H 1400 6500 50  0001 C CNN
	1    1400 6300
	1    0    0    -1  
$EndComp
Wire Wire Line
	1100 6300 1200 6300
Wire Wire Line
	1600 6300 1700 6300
Wire Wire Line
	1700 6300 1700 6400
$Comp
L Switch:SW_Push SW13
U 1 1 5C66875B
P 2900 6300
F 0 "SW13" H 2900 6585 50  0000 C CNN
F 1 "SELECT" H 2900 6494 50  0000 C CNN
F 2 "Footprints:Button_Rectangle_9.3x4.4mm" H 2900 6500 50  0001 C CNN
F 3 "" H 2900 6500 50  0001 C CNN
	1    2900 6300
	1    0    0    -1  
$EndComp
Wire Wire Line
	3100 6300 3200 6300
Wire Wire Line
	3200 6300 3200 6400
Wire Wire Line
	2600 6300 2700 6300
Wire Wire Line
	3200 6400 3300 6400
Connection ~ 3200 6400
Wire Wire Line
	1100 5850 1100 6300
Connection ~ 1100 5850
Wire Wire Line
	2600 5850 2600 6300
Connection ~ 2600 5850
$Comp
L Switch:SW_Push SW6
U 1 1 5C684252
P 1400 6750
F 0 "SW6" H 1400 7035 50  0000 C CNN
F 1 "RIGHT" H 1400 6944 50  0000 C CNN
F 2 "Footprints:Button_DPAD_5.2mm" H 1400 6950 50  0001 C CNN
F 3 "" H 1400 6950 50  0001 C CNN
	1    1400 6750
	1    0    0    -1  
$EndComp
Wire Wire Line
	1100 6750 1200 6750
Wire Wire Line
	1600 6750 1700 6750
Wire Wire Line
	1700 6750 1700 6850
$Comp
L Switch:SW_Push SW14
U 1 1 5C684267
P 2900 6750
F 0 "SW14" H 2900 7035 50  0000 C CNN
F 1 "START" H 2900 6944 50  0000 C CNN
F 2 "Footprints:Button_Rectangle_9.3x4.4mm" H 2900 6950 50  0001 C CNN
F 3 "" H 2900 6950 50  0001 C CNN
	1    2900 6750
	1    0    0    -1  
$EndComp
Wire Wire Line
	3100 6750 3200 6750
Wire Wire Line
	3200 6750 3200 6850
Wire Wire Line
	2600 6750 2700 6750
Wire Wire Line
	3200 6850 3300 6850
Connection ~ 3200 6850
Wire Wire Line
	2600 6300 2600 6750
Connection ~ 2600 6300
Wire Wire Line
	1100 6300 1100 6750
Connection ~ 1100 6300
Text GLabel 3300 6850 2    50   Output ~ 0
BTN_IN3
Text GLabel 3300 6400 2    50   Output ~ 0
BTN_IN2
Text GLabel 3300 5950 2    50   Output ~ 0
BTN_IN1
Text GLabel 3300 5500 2    50   Output ~ 0
BTN_IN0
$Comp
L Device:C_Small C44
U 1 1 5C9313C1
P 6300 1900
F 0 "C44" H 6208 1854 50  0000 R CNN
F 1 "4.7uF/16V" H 6208 1945 50  0000 R CNN
F 2 "Capacitor_SMD:C_0603_1608Metric" H 6300 1900 50  0001 C CNN
F 3 "~" H 6300 1900 50  0001 C CNN
	1    6300 1900
	1    0    0    1   
$EndComp
Wire Wire Line
	6300 1700 6800 1700
Wire Wire Line
	6300 2700 6800 2700
Wire Wire Line
	6300 1700 6200 1700
Connection ~ 6300 1700
Wire Wire Line
	6300 2000 6300 2700
Wire Wire Line
	6400 2100 5800 2100
Connection ~ 5800 2100
Wire Wire Line
	7300 2700 7500 2700
Wire Wire Line
	7400 2100 7400 1700
Wire Wire Line
	7400 2100 7200 2100
Wire Wire Line
	8100 1900 7500 1900
Connection ~ 7500 1900
$Comp
L Device:C_Small C48
U 1 1 5C9CC18A
P 1600 2450
F 0 "C48" H 1692 2496 50  0000 L CNN
F 1 "22uF/10V" H 1692 2405 50  0000 L CNN
F 2 "Capacitor_SMD:C_0603_1608Metric" H 1600 2450 50  0001 C CNN
F 3 "~" H 1600 2450 50  0001 C CNN
	1    1600 2450
	1    0    0    -1  
$EndComp
$Comp
L Device:C_Small C49
U 1 1 5C9D0529
P 3500 2450
F 0 "C49" H 3592 2496 50  0000 L CNN
F 1 "22uF/10V" H 3592 2405 50  0000 L CNN
F 2 "Capacitor_SMD:C_0603_1608Metric" H 3500 2450 50  0001 C CNN
F 3 "~" H 3500 2450 50  0001 C CNN
	1    3500 2450
	1    0    0    -1  
$EndComp
Wire Wire Line
	1600 2200 2000 2200
Wire Wire Line
	1600 2650 2500 2650
Connection ~ 1600 2650
Wire Wire Line
	7400 1700 8100 1700
$Comp
L Device:Q_PMOS_GDS Q2
U 1 1 5CD1A13C
P 1500 1800
F 0 "Q2" H 1705 1846 50  0000 L CNN
F 1 "DMG2301L-7" H 1705 1755 50  0000 L CNN
F 2 "Package_TO_SOT_SMD:SOT-23" H 1700 1900 50  0001 C CNN
F 3 "https://www.diodes.com/assets/Datasheets/DMG2305UX.pdf" H 1500 1800 50  0001 C CNN
	1    1500 1800
	1    0    0    -1  
$EndComp
$Comp
L Mechanical:MountingHole MH1
U 1 1 5CFDD3B6
P 7700 5600
F 0 "MH1" H 7800 5646 50  0000 L CNN
F 1 "1.9mm" H 7800 5555 50  0000 L CNN
F 2 "Footprints:MountingHole_1.9mm_M1.8" H 7700 5600 50  0001 C CNN
F 3 "~" H 7700 5600 50  0001 C CNN
	1    7700 5600
	1    0    0    -1  
$EndComp
$Comp
L Mechanical:MountingHole MH2
U 1 1 5CFDD6C2
P 8700 5650
F 0 "MH2" H 8800 5696 50  0000 L CNN
F 1 "1.9mm" H 8800 5605 50  0000 L CNN
F 2 "Footprints:MountingHole_1.9mm_M1.8" H 8700 5650 50  0001 C CNN
F 3 "~" H 8700 5650 50  0001 C CNN
	1    8700 5650
	1    0    0    -1  
$EndComp
$Comp
L Mechanical:MountingHole MH3
U 1 1 5CFE1AC0
P 7700 5900
F 0 "MH3" H 7800 5946 50  0000 L CNN
F 1 "1.9mm" H 7800 5855 50  0000 L CNN
F 2 "Footprints:MountingHole_1.9mm_M1.8" H 7700 5900 50  0001 C CNN
F 3 "~" H 7700 5900 50  0001 C CNN
	1    7700 5900
	1    0    0    -1  
$EndComp
$Comp
L Mechanical:MountingHole MH4
U 1 1 5CFE5E3B
P 8200 5900
F 0 "MH4" H 8300 5946 50  0000 L CNN
F 1 "1.9mm" H 8300 5855 50  0000 L CNN
F 2 "Footprints:MountingHole_1.9mm_M1.8" H 8200 5900 50  0001 C CNN
F 3 "~" H 8200 5900 50  0001 C CNN
	1    8200 5900
	1    0    0    -1  
$EndComp
$Comp
L Mechanical:MountingHole MH5
U 1 1 5CFEA185
P 8700 5900
F 0 "MH5" H 8800 5946 50  0000 L CNN
F 1 "1.9mm" H 8800 5855 50  0000 L CNN
F 2 "Footprints:MountingHole_1.9mm_M1.8" H 8700 5900 50  0001 C CNN
F 3 "~" H 8700 5900 50  0001 C CNN
	1    8700 5900
	1    0    0    -1  
$EndComp
$Comp
L Mechanical:MountingHole MH8
U 1 1 5CFF2825
P 8700 6150
F 0 "MH8" H 8800 6196 50  0000 L CNN
F 1 "1.9mm" H 8800 6105 50  0000 L CNN
F 2 "Footprints:MountingHole_1.9mm_M1.8" H 8700 6150 50  0001 C CNN
F 3 "~" H 8700 6150 50  0001 C CNN
	1    8700 6150
	1    0    0    -1  
$EndComp
$Comp
L Mechanical:MountingHole MH7
U 1 1 5CFF6B77
P 8200 6150
F 0 "MH7" H 8300 6196 50  0000 L CNN
F 1 "1.9mm" H 8300 6105 50  0000 L CNN
F 2 "Footprints:MountingHole_1.9mm_M1.8" H 8200 6150 50  0001 C CNN
F 3 "~" H 8200 6150 50  0001 C CNN
	1    8200 6150
	1    0    0    -1  
$EndComp
$Comp
L Mechanical:MountingHole MH6
U 1 1 5CFFAED7
P 7700 6250
F 0 "MH6" H 7800 6296 50  0000 L CNN
F 1 "1.9mm" H 7800 6205 50  0000 L CNN
F 2 "Footprints:MountingHole_1.9mm_M1.8" H 7700 6250 50  0001 C CNN
F 3 "~" H 7700 6250 50  0001 C CNN
	1    7700 6250
	1    0    0    -1  
$EndComp
$Comp
L Mechanical:MountingHole MH9
U 1 1 5D008836
P 9600 5650
F 0 "MH9" H 9700 5696 50  0000 L CNN
F 1 "1.5mm" H 9700 5605 50  0000 L CNN
F 2 "Footprints:MountingHole_1.5mm_M1.4" H 9600 5650 50  0001 C CNN
F 3 "~" H 9600 5650 50  0001 C CNN
	1    9600 5650
	1    0    0    -1  
$EndComp
$Comp
L Mechanical:MountingHole MH10
U 1 1 5D008970
P 10100 5650
F 0 "MH10" H 10200 5696 50  0000 L CNN
F 1 "1.5mm" H 10200 5605 50  0000 L CNN
F 2 "Footprints:MountingHole_1.5mm_M1.4" H 10100 5650 50  0001 C CNN
F 3 "~" H 10100 5650 50  0001 C CNN
	1    10100 5650
	1    0    0    -1  
$EndComp
$Comp
L Mechanical:MountingHole MH11
U 1 1 5D00CDEE
P 9600 5900
F 0 "MH11" H 9700 5946 50  0000 L CNN
F 1 "2.0mm" H 9700 5855 50  0000 L CNN
F 2 "Footprints:MountingHole_2.0mm" H 9600 5900 50  0001 C CNN
F 3 "~" H 9600 5900 50  0001 C CNN
	1    9600 5900
	1    0    0    -1  
$EndComp
$Comp
L Mechanical:MountingHole MH12
U 1 1 5D00CF1C
P 9600 6150
F 0 "MH12" H 9700 6196 50  0000 L CNN
F 1 "3.2mm" H 9700 6105 50  0000 L CNN
F 2 "MountingHole:MountingHole_3.2mm_M3" H 9600 6150 50  0001 C CNN
F 3 "~" H 9600 6150 50  0001 C CNN
	1    9600 6150
	1    0    0    -1  
$EndComp
$Sheet
S 7900 3550 1200 1250
U 5C6A25D2
F0 "mcu" 50
F1 "mcu.sch" 50
$EndSheet
$Sheet
S 9300 3550 1200 1250
U 5C6A6B11
F0 "memory" 50
F1 "memory.sch" 50
$EndSheet
Wire Wire Line
	1700 6400 3200 6400
Wire Wire Line
	1700 6850 3200 6850
Wire Wire Line
	6800 2700 7300 2700
Connection ~ 7300 2700
Wire Wire Line
	1800 5850 1900 5850
$Comp
L Graphic:Logo_Open_Hardware_Small LOGO2
U 1 1 5C6E739F
P 6700 6200
F 0 "LOGO2" H 6947 6271 50  0000 L CNN
F 1 "KiCad" H 6947 6180 50  0000 L CNN
F 2 "Symbol:KiCad-Logo_5mm_Copper" H 6700 6200 50  0001 C CNN
F 3 "~" H 6700 6200 50  0001 C CNN
	1    6700 6200
	1    0    0    -1  
$EndComp
$Comp
L Graphic:Logo_Open_Hardware_Small LOGO1
U 1 1 5C6E7436
P 6700 5700
F 0 "LOGO1" H 6947 5771 50  0000 L CNN
F 1 "OpenHardware" H 6947 5680 50  0000 L CNN
F 2 "Symbol:OSHW-Logo2_7.3x6mm_Copper" H 6700 5700 50  0001 C CNN
F 3 "~" H 6700 5700 50  0001 C CNN
	1    6700 5700
	1    0    0    -1  
$EndComp
$Comp
L Mechanical:MountingHole FID1
U 1 1 5C6FA509
P 5300 5600
F 0 "FID1" H 5400 5646 50  0000 L CNN
F 1 "Fiducial" H 5400 5555 50  0000 L CNN
F 2 "Fiducial:Fiducial_1mm_Dia_2mm_Outer" H 5300 5600 50  0001 C CNN
F 3 "~" H 5300 5600 50  0001 C CNN
	1    5300 5600
	1    0    0    -1  
$EndComp
$Comp
L Mechanical:MountingHole FID3
U 1 1 5C6FA6CB
P 5900 5900
F 0 "FID3" H 6000 5946 50  0000 L CNN
F 1 "Fiducial" H 6000 5855 50  0000 L CNN
F 2 "Fiducial:Fiducial_1mm_Dia_2mm_Outer" H 5900 5900 50  0001 C CNN
F 3 "~" H 5900 5900 50  0001 C CNN
	1    5900 5900
	1    0    0    -1  
$EndComp
$Comp
L Mechanical:MountingHole FID2
U 1 1 5C7052EE
P 5900 5600
F 0 "FID2" H 6000 5646 50  0000 L CNN
F 1 "Fiducial" H 6000 5555 50  0000 L CNN
F 2 "Fiducial:Fiducial_1mm_Dia_2mm_Outer" H 5900 5600 50  0001 C CNN
F 3 "~" H 5900 5600 50  0001 C CNN
	1    5900 5600
	1    0    0    -1  
$EndComp
$Comp
L Graphic:Logo_Open_Hardware_Small SCREW3
U 1 1 5C6DA77B
P 5300 5100
F 0 "SCREW3" H 5547 5171 50  0000 L CNN
F 1 "ScrewSymbol" H 5547 5080 50  0000 L CNN
F 2 "Footprints:Symbol_Screw_SilkscreenTop" H 5300 5100 50  0001 C CNN
F 3 "~" H 5300 5100 50  0001 C CNN
	1    5300 5100
	1    0    0    -1  
$EndComp
$Comp
L Graphic:Logo_Open_Hardware_Small SCREW1
U 1 1 5C6E1B7A
P 5300 4600
F 0 "SCREW1" H 5547 4671 50  0000 L CNN
F 1 "ScrewSymbol" H 5547 4580 50  0000 L CNN
F 2 "Footprints:Symbol_Screw_SilkscreenTop" H 5300 4600 50  0001 C CNN
F 3 "~" H 5300 4600 50  0001 C CNN
	1    5300 4600
	1    0    0    -1  
$EndComp
$Comp
L Graphic:Logo_Open_Hardware_Small SCREW2
U 1 1 5C6E5640
P 6400 4600
F 0 "SCREW2" H 6647 4671 50  0000 L CNN
F 1 "ScrewSymbol" H 6647 4580 50  0000 L CNN
F 2 "Footprints:Symbol_Screw_SilkscreenTop" H 6400 4600 50  0001 C CNN
F 3 "~" H 6400 4600 50  0001 C CNN
	1    6400 4600
	1    0    0    -1  
$EndComp
$Comp
L Graphic:Logo_Open_Hardware_Small SCREW4
U 1 1 5C6E56F2
P 6400 5100
F 0 "SCREW4" H 6647 5171 50  0000 L CNN
F 1 "ScrewSymbol" H 6647 5080 50  0000 L CNN
F 2 "Footprints:Symbol_Screw_SilkscreenTop" H 6400 5100 50  0001 C CNN
F 3 "~" H 6400 5100 50  0001 C CNN
	1    6400 5100
	1    0    0    -1  
$EndComp
$EndSCHEMATC
