EESchema Schematic File Version 4
LIBS:f100-cache
EELAYER 26 0
EELAYER END
$Descr A4 11693 8268
encoding utf-8
Sheet 2 3
Title "MCU"
Date "2019-02-09"
Rev "1"
Comp ""
Comment1 ""
Comment2 ""
Comment3 ""
Comment4 ""
$EndDescr
$Comp
L power:GND #PWR0111
U 1 1 5C544C3C
P 2000 4350
F 0 "#PWR0111" H 2000 4100 50  0001 C CNN
F 1 "GND" H 2005 4177 50  0000 C CNN
F 2 "" H 2000 4350 50  0001 C CNN
F 3 "" H 2000 4350 50  0001 C CNN
	1    2000 4350
	1    0    0    -1  
$EndComp
Wire Wire Line
	7500 2500 7500 2300
Wire Wire Line
	7400 2500 7400 2300
Text GLabel 5500 2300 1    50   Output ~ 0
FMC_A0
Text GLabel 5400 2300 1    50   Output ~ 0
FMC_A1
Text GLabel 5300 2300 1    50   Output ~ 0
FMC_A2
Text GLabel 5200 2300 1    50   Output ~ 0
FMC_A3
Text GLabel 5100 2300 1    50   Output ~ 0
FMC_A4
Text GLabel 5000 2300 1    50   Output ~ 0
FMC_A5
Wire Wire Line
	5500 2500 5500 2300
Wire Wire Line
	5400 2500 5400 2300
Wire Wire Line
	5300 2500 5300 2300
Wire Wire Line
	5200 2500 5200 2300
Wire Wire Line
	5100 2500 5100 2300
Wire Wire Line
	5000 2500 5000 2300
Wire Wire Line
	4500 2300 4500 2500
Text GLabel 4500 2300 1    50   Output ~ 0
LCD_DE
Text GLabel 8200 5200 3    50   Output ~ 0
FMC_SDNWE
Wire Wire Line
	5500 5000 5500 5200
Wire Wire Line
	8600 5200 8600 5000
Wire Wire Line
	8500 5200 8500 5000
Wire Wire Line
	8400 5200 8400 5000
Wire Wire Line
	8300 5200 8300 5000
$Comp
L MCU_ST_STM32H7:STM32H743ZITx U1
U 1 1 5C544AF0
P 5600 3800
F 0 "U1" V 5504 160 50  0000 R CNN
F 1 "STM32H743ZITx" V 5595 160 50  0000 R CNN
F 2 "Package_QFP:LQFP-144_20x20mm_P0.5mm" H 4500 400 50  0001 R CNN
F 3 "https://www.st.com/resource/en/datasheet/stm32h743bi.pdf" H 5600 3800 50  0001 C CNN
	1    5600 3800
	0    1    1    0   
$EndComp
Wire Wire Line
	8800 5200 8800 5000
Text GLabel 8800 5200 3    50   Output ~ 0
LCD_R2
Text GLabel 8600 5200 3    50   Output ~ 0
LCD_B5
Text GLabel 8500 5200 3    50   Output ~ 0
LCD_VSYNC
Text GLabel 8400 5200 3    50   Output ~ 0
LCD_R4
Text GLabel 8300 5200 3    50   Output ~ 0
LCD_G2
Text GLabel 7200 5200 3    50   Output ~ 0
LCD_R3
Text GLabel 7100 5200 3    50   Output ~ 0
LCD_R6
Wire Wire Line
	7200 5000 7200 5200
Wire Wire Line
	7100 5000 7100 5200
Wire Wire Line
	9300 3000 9300 3100
Wire Wire Line
	9200 4300 9300 4300
Wire Wire Line
	9200 4200 9300 4200
Connection ~ 9300 4200
Wire Wire Line
	9300 4200 9300 4300
Wire Wire Line
	9200 4100 9300 4100
Connection ~ 9300 4100
Wire Wire Line
	9300 4100 9300 4200
Wire Wire Line
	9200 4000 9300 4000
Connection ~ 9300 4000
Wire Wire Line
	9300 4000 9300 4100
Wire Wire Line
	9200 3900 9300 3900
Connection ~ 9300 3900
Wire Wire Line
	9300 3900 9300 4000
Wire Wire Line
	9200 3800 9300 3800
Connection ~ 9300 3800
Wire Wire Line
	9300 3800 9300 3900
Wire Wire Line
	9200 3700 9300 3700
Connection ~ 9300 3700
Wire Wire Line
	9300 3700 9300 3800
Wire Wire Line
	9200 3600 9300 3600
Connection ~ 9300 3600
Wire Wire Line
	9300 3600 9300 3700
Wire Wire Line
	9200 3500 9300 3500
Connection ~ 9300 3500
Wire Wire Line
	9300 3500 9300 3600
Wire Wire Line
	9200 3400 9300 3400
Connection ~ 9300 3400
Wire Wire Line
	9300 3400 9300 3500
Wire Wire Line
	9200 3300 9300 3300
Connection ~ 9300 3300
Wire Wire Line
	9300 3300 9300 3400
Wire Wire Line
	9200 3200 9300 3200
Connection ~ 9300 3200
Wire Wire Line
	9300 3200 9300 3300
Wire Wire Line
	9200 3100 9300 3100
Connection ~ 9300 3100
Wire Wire Line
	9300 3100 9300 3200
Text GLabel 6600 5200 3    50   Output ~ 0
FMC_SDNE1
Text GLabel 6700 5200 3    50   Output ~ 0
FMC_SDCKE1
Wire Wire Line
	5100 5200 5100 5000
Text GLabel 4400 2300 1    50   Output ~ 0
FMC_SDNRAS
Text GLabel 4300 2300 1    50   Output ~ 0
FMC_A6
Wire Wire Line
	4400 2300 4400 2500
Wire Wire Line
	4300 2300 4300 2500
Text GLabel 4200 2300 1    50   Output ~ 0
FMC_A7
Text GLabel 4100 2300 1    50   Output ~ 0
FMC_A8
Text GLabel 4000 2300 1    50   Output ~ 0
FMC_A9
Wire Wire Line
	4200 2500 4200 2300
Wire Wire Line
	4100 2300 4100 2500
Wire Wire Line
	4000 2300 4000 2500
Text GLabel 7200 2300 1    50   Output ~ 0
FMC_A10
Text GLabel 7100 2300 1    50   Output ~ 0
FMC_A11
Wire Wire Line
	7200 2300 7200 2500
Wire Wire Line
	7100 2300 7100 2500
Text GLabel 3100 2300 1    50   3State ~ 0
FMC_D4
Text GLabel 3000 2300 1    50   3State ~ 0
FMC_D5
Text GLabel 2900 2300 1    50   3State ~ 0
FMC_D6
Text GLabel 2800 2300 1    50   3State ~ 0
FMC_D7
Text GLabel 2700 2300 1    50   3State ~ 0
FMC_D8
Text GLabel 2600 2300 1    50   3State ~ 0
FMC_D9
Text GLabel 2500 2300 1    50   3State ~ 0
FMC_D10
Text GLabel 2400 2300 1    50   3State ~ 0
FMC_D11
Text GLabel 2300 2300 1    50   3State ~ 0
FMC_D12
Wire Wire Line
	2300 2300 2300 2500
Wire Wire Line
	2400 2500 2400 2300
Wire Wire Line
	2500 2300 2500 2500
Wire Wire Line
	2600 2500 2600 2300
Wire Wire Line
	2700 2300 2700 2500
Wire Wire Line
	2800 2500 2800 2300
Wire Wire Line
	2900 2300 2900 2500
Wire Wire Line
	3000 2500 3000 2300
Wire Wire Line
	3100 2300 3100 2500
Text GLabel 6200 5200 3    50   Output ~ 0
LCD_G4
Text GLabel 6100 5200 3    50   Output ~ 0
LCD_G5
Text GLabel 3000 5200 3    50   3State ~ 0
FMC_D13
Text GLabel 2900 5200 3    50   3State ~ 0
FMC_D14
Text GLabel 2800 5200 3    50   3State ~ 0
FMC_D15
Wire Wire Line
	2800 5200 2800 5000
Wire Wire Line
	2900 5000 2900 5200
Wire Wire Line
	3000 5200 3000 5000
Text GLabel 2400 5200 3    50   3State ~ 0
FMC_D0
Text GLabel 2300 5200 3    50   3State ~ 0
FMC_D1
Wire Wire Line
	2300 5200 2300 5000
Wire Wire Line
	2400 5000 2400 5200
Text GLabel 7000 2300 1    50   Output ~ 0
FMC_A12
Wire Wire Line
	7000 2300 7000 2500
Text GLabel 6600 2300 1    50   Output ~ 0
LCD_R7
Text GLabel 6500 2300 1    50   Output ~ 0
LCD_CLK
Text GLabel 6400 2300 1    50   Output ~ 0
FMC_SDCLK
Wire Wire Line
	6400 2300 6400 2500
Wire Wire Line
	6500 2500 6500 2300
Wire Wire Line
	6600 2300 6600 2500
Text GLabel 4900 5200 3    50   Output ~ 0
LCD_HSYNC
Text GLabel 4800 5200 3    50   Output ~ 0
LCD_G6
Text GLabel 4700 5200 3    50   3State ~ 0
SDMMC1_D0
Text GLabel 4600 5200 3    50   3State ~ 0
SDMMC1_D1
Wire Wire Line
	4900 5200 4900 5000
Wire Wire Line
	4800 5000 4800 5200
Wire Wire Line
	4700 5200 4700 5000
Wire Wire Line
	4600 5000 4600 5200
Text GLabel 8100 5200 3    50   Output ~ 0
LCD_B3
Text GLabel 8000 5200 3    50   Output ~ 0
LPUART1_TX
Text GLabel 6500 5200 3    50   Input ~ 0
LPUART1_RX
Text GLabel 5500 5200 3    50   Output ~ 0
LCD_R5
Wire Wire Line
	7900 5200 7900 5000
Wire Wire Line
	8000 5000 8000 5200
Wire Wire Line
	8100 5200 8100 5000
Text GLabel 7600 5200 3    50   Input ~ 0
JTMS
Text GLabel 7500 5200 3    50   Input ~ 0
JTCK
Text GLabel 7400 5200 3    50   Input ~ 0
JTDI
Wire Wire Line
	7400 5000 7400 5200
Wire Wire Line
	7500 5200 7500 5000
Wire Wire Line
	7600 5000 7600 5200
Text GLabel 4500 5200 3    50   3State ~ 0
SDMMC1_D2
Text GLabel 4400 5200 3    50   3State ~ 0
SDMMC1_D3
Wire Wire Line
	4500 5000 4500 5200
Wire Wire Line
	4400 5000 4400 5200
Text GLabel 3800 5200 3    50   3State ~ 0
FMC_D2
Text GLabel 3700 5200 3    50   3State ~ 0
FMC_D3
Text GLabel 3600 5200 3    50   3State ~ 0
SDMMC1_CMD
Text GLabel 3500 5200 3    50   Output ~ 0
LCD_G7
Wire Wire Line
	3800 5000 3800 5200
Wire Wire Line
	3700 5200 3700 5000
Wire Wire Line
	3600 5000 3600 5200
Wire Wire Line
	3500 5200 3500 5000
Text GLabel 3200 5200 3    50   Output ~ 0
LCD_B2
Wire Wire Line
	3200 5200 3200 5000
Text GLabel 6200 2300 1    50   Output ~ 0
LCD_G3
Text GLabel 7900 5200 3    50   Output ~ 0
LCD_B4
Wire Wire Line
	6200 2500 6200 2300
Text GLabel 5700 2300 1    50   Output ~ 0
FMC_SDNCAS
Wire Wire Line
	5700 2300 5700 2500
Text GLabel 6900 5200 3    50   Output ~ 0
JTDO
Text GLabel 6800 5200 3    50   Input ~ 0
NJTRST
Text GLabel 6400 5200 3    50   Output ~ 0
LCD_B6
Text GLabel 6300 5200 3    50   Output ~ 0
LCD_B7
Wire Wire Line
	6400 5200 6400 5000
Wire Wire Line
	6300 5000 6300 5200
Wire Wire Line
	6200 5200 6200 5000
Wire Wire Line
	6100 5000 6100 5200
Text GLabel 3800 2300 1    50   Output ~ 0
FMC_NBL0
Text GLabel 3700 2300 1    50   Output ~ 0
FMC_NBL1
Wire Wire Line
	3700 2300 3700 2500
Wire Wire Line
	3800 2500 3800 2300
Wire Wire Line
	6900 5200 6900 5000
Wire Wire Line
	6800 5000 6800 5200
$Comp
L power:+3.3V #PWR0112
U 1 1 5C638DDC
P 9300 3000
F 0 "#PWR0112" H 9300 2850 50  0001 C CNN
F 1 "+3.3V" H 9315 3173 50  0000 C CNN
F 2 "" H 9300 3000 50  0001 C CNN
F 3 "" H 9300 3000 50  0001 C CNN
	1    9300 3000
	1    0    0    -1  
$EndComp
$Comp
L Device:Crystal X1
U 1 1 5C59B2DB
P 4050 6300
F 0 "X1" H 4050 6568 50  0000 C CNN
F 1 "32.768KHz" H 4050 6477 50  0000 C CNN
F 2 "Crystal:Crystal_SMD_3215-2Pin_3.2x1.5mm" H 4050 6300 50  0001 C CNN
F 3 "~" H 4050 6300 50  0001 C CNN
	1    4050 6300
	1    0    0    -1  
$EndComp
$Comp
L Device:C_Small C1
U 1 1 5C5A0BFC
P 3800 6500
F 0 "C1" H 3892 6546 50  0000 L CNN
F 1 "1.5pF" H 3892 6455 50  0000 L CNN
F 2 "Capacitor_SMD:C_0603_1608Metric" H 3800 6500 50  0001 C CNN
F 3 "~" H 3800 6500 50  0001 C CNN
	1    3800 6500
	-1   0    0    -1  
$EndComp
$Comp
L Device:C_Small C2
U 1 1 5C5A0C49
P 4300 6500
F 0 "C2" H 4392 6546 50  0000 L CNN
F 1 "1.5pF" H 4392 6455 50  0000 L CNN
F 2 "Capacitor_SMD:C_0603_1608Metric" H 4300 6500 50  0001 C CNN
F 3 "~" H 4300 6500 50  0001 C CNN
	1    4300 6500
	1    0    0    -1  
$EndComp
Wire Wire Line
	3800 6400 3800 6300
Wire Wire Line
	3800 6300 3900 6300
Wire Wire Line
	3800 6300 3800 5900
Wire Wire Line
	3800 5900 4000 5900
Connection ~ 3800 6300
Wire Wire Line
	4300 6400 4300 6300
Wire Wire Line
	4300 6300 4200 6300
Wire Wire Line
	4300 6300 4300 5900
Wire Wire Line
	4300 5900 4100 5900
Connection ~ 4300 6300
$Comp
L power:GND #PWR0113
U 1 1 5C5C2880
P 3800 6700
F 0 "#PWR0113" H 3800 6450 50  0001 C CNN
F 1 "GND" H 3805 6527 50  0000 C CNN
F 2 "" H 3800 6700 50  0001 C CNN
F 3 "" H 3800 6700 50  0001 C CNN
	1    3800 6700
	1    0    0    -1  
$EndComp
$Comp
L power:GND #PWR0114
U 1 1 5C5C28AE
P 4300 6700
F 0 "#PWR0114" H 4300 6450 50  0001 C CNN
F 1 "GND" H 4305 6527 50  0000 C CNN
F 2 "" H 4300 6700 50  0001 C CNN
F 3 "" H 4300 6700 50  0001 C CNN
	1    4300 6700
	1    0    0    -1  
$EndComp
Wire Wire Line
	3800 6600 3800 6700
Wire Wire Line
	4300 6600 4300 6700
$Comp
L Device:Crystal_GND24 X2
U 1 1 5C5CF2D3
P 7450 1600
F 0 "X2" H 7641 1646 50  0000 L CNN
F 1 "48.000MHz" H 7641 1555 50  0000 L CNN
F 2 "Crystal:Crystal_SMD_2520-4Pin_2.5x2.0mm" H 7450 1600 50  0001 C CNN
F 3 "~" H 7450 1600 50  0001 C CNN
	1    7450 1600
	1    0    0    -1  
$EndComp
$Comp
L Device:C_Small C3
U 1 1 5C5CF373
P 7100 1200
F 0 "C3" H 7192 1246 50  0000 L CNN
F 1 "14pF" H 7192 1155 50  0000 L CNN
F 2 "Capacitor_SMD:C_0603_1608Metric" H 7100 1200 50  0001 C CNN
F 3 "~" H 7100 1200 50  0001 C CNN
	1    7100 1200
	-1   0    0    -1  
$EndComp
$Comp
L Device:C_Small C4
U 1 1 5C5CF3F7
P 7800 1200
F 0 "C4" H 7892 1246 50  0000 L CNN
F 1 "14pF" H 7892 1155 50  0000 L CNN
F 2 "Capacitor_SMD:C_0603_1608Metric" H 7800 1200 50  0001 C CNN
F 3 "~" H 7800 1200 50  0001 C CNN
	1    7800 1200
	1    0    0    -1  
$EndComp
Wire Wire Line
	7300 1600 7300 2300
Wire Wire Line
	7300 2300 7400 2300
Wire Wire Line
	7500 2300 7600 2300
Wire Wire Line
	7600 2300 7600 1600
Wire Wire Line
	7300 1600 7100 1600
Wire Wire Line
	7100 1600 7100 1300
Connection ~ 7300 1600
Wire Wire Line
	7600 1600 7800 1600
Wire Wire Line
	7800 1600 7800 1300
Connection ~ 7600 1600
$Comp
L power:GND #PWR0115
U 1 1 5C5FD086
P 7450 1900
F 0 "#PWR0115" H 7450 1650 50  0001 C CNN
F 1 "GND" H 7455 1727 50  0000 C CNN
F 2 "" H 7450 1900 50  0001 C CNN
F 3 "" H 7450 1900 50  0001 C CNN
	1    7450 1900
	1    0    0    -1  
$EndComp
$Comp
L power:GND #PWR0116
U 1 1 5C5FD0BD
P 7450 950
F 0 "#PWR0116" H 7450 700 50  0001 C CNN
F 1 "GND" H 7455 777 50  0000 C CNN
F 2 "" H 7450 950 50  0001 C CNN
F 3 "" H 7450 950 50  0001 C CNN
	1    7450 950 
	-1   0    0    1   
$EndComp
Wire Wire Line
	7450 1800 7450 1900
$Comp
L power:GND #PWR0117
U 1 1 5C61AAB9
P 8400 950
F 0 "#PWR0117" H 8400 700 50  0001 C CNN
F 1 "GND" H 8405 777 50  0000 C CNN
F 2 "" H 8400 950 50  0001 C CNN
F 3 "" H 8400 950 50  0001 C CNN
	1    8400 950 
	-1   0    0    1   
$EndComp
Wire Wire Line
	8300 1350 8300 1250
Wire Wire Line
	8300 2500 8300 1550
$Comp
L power:GND #PWR0118
U 1 1 5C665C6B
P 10500 5900
F 0 "#PWR0118" H 10500 5650 50  0001 C CNN
F 1 "GND" H 10505 5727 50  0000 C CNN
F 2 "" H 10500 5900 50  0001 C CNN
F 3 "" H 10500 5900 50  0001 C CNN
	1    10500 5900
	1    0    0    -1  
$EndComp
$Comp
L power:+3.3V #PWR0119
U 1 1 5C675491
P 9600 5500
F 0 "#PWR0119" H 9600 5350 50  0001 C CNN
F 1 "+3.3V" H 9615 5673 50  0000 C CNN
F 2 "" H 9600 5500 50  0001 C CNN
F 3 "" H 9600 5500 50  0001 C CNN
	1    9600 5500
	1    0    0    -1  
$EndComp
$Comp
L Device:C_Small C37
U 1 1 5C6754D5
P 10500 5700
F 0 "C37" H 10592 5746 50  0000 L CNN
F 1 "1uF" H 10592 5655 50  0000 L CNN
F 2 "Capacitor_SMD:C_0603_1608Metric" H 10500 5700 50  0001 C CNN
F 3 "~" H 10500 5700 50  0001 C CNN
	1    10500 5700
	-1   0    0    -1  
$EndComp
Wire Wire Line
	10500 5800 10500 5900
Connection ~ 10500 5900
Wire Wire Line
	10700 5600 10700 5500
Wire Wire Line
	10500 5600 10500 5500
$Comp
L power:+3.3VA #PWR0120
U 1 1 5C6ACFBC
P 10500 5500
F 0 "#PWR0120" H 10500 5350 50  0001 C CNN
F 1 "+3.3VA" H 10515 5673 50  0000 C CNN
F 2 "" H 10500 5500 50  0001 C CNN
F 3 "" H 10500 5500 50  0001 C CNN
	1    10500 5500
	1    0    0    -1  
$EndComp
Connection ~ 10500 5500
$Comp
L power:+3.3VA #PWR0121
U 1 1 5C6ACFFF
P 8200 2150
F 0 "#PWR0121" H 8200 2000 50  0001 C CNN
F 1 "+3.3VA" H 8215 2323 50  0000 C CNN
F 2 "" H 8200 2150 50  0001 C CNN
F 3 "" H 8200 2150 50  0001 C CNN
	1    8200 2150
	1    0    0    -1  
$EndComp
Wire Wire Line
	9200 4400 9300 4400
Wire Wire Line
	8300 1250 8400 1250
$Comp
L Device:C_Small C16
U 1 1 5C77E32D
P 3400 1150
F 0 "C16" H 3492 1196 50  0000 L CNN
F 1 "100nF" H 3492 1105 50  0000 L CNN
F 2 "Capacitor_SMD:C_0603_1608Metric" H 3400 1150 50  0001 C CNN
F 3 "~" H 3400 1150 50  0001 C CNN
	1    3400 1150
	1    0    0    -1  
$EndComp
$Comp
L power:+3.3V #PWR0122
U 1 1 5C7B087F
P 1000 950
F 0 "#PWR0122" H 1000 800 50  0001 C CNN
F 1 "+3.3V" H 1015 1123 50  0000 C CNN
F 2 "" H 1000 950 50  0001 C CNN
F 3 "" H 1000 950 50  0001 C CNN
	1    1000 950 
	1    0    0    -1  
$EndComp
$Comp
L power:GND #PWR0123
U 1 1 5C7B8C91
P 1000 1350
F 0 "#PWR0123" H 1000 1100 50  0001 C CNN
F 1 "GND" H 1005 1177 50  0000 C CNN
F 2 "" H 1000 1350 50  0001 C CNN
F 3 "" H 1000 1350 50  0001 C CNN
	1    1000 1350
	1    0    0    -1  
$EndComp
Wire Wire Line
	1000 1050 1000 950 
Wire Wire Line
	1400 1050 1400 950 
Wire Wire Line
	1400 950  1000 950 
Connection ~ 1000 950 
Wire Wire Line
	1800 1050 1800 950 
Wire Wire Line
	1800 950  1400 950 
Connection ~ 1400 950 
Wire Wire Line
	2200 1050 2200 950 
Wire Wire Line
	2200 950  1800 950 
Connection ~ 1800 950 
Wire Wire Line
	2600 1050 2600 950 
Wire Wire Line
	2600 950  2200 950 
Connection ~ 2200 950 
Wire Wire Line
	3000 1050 3000 950 
Wire Wire Line
	3000 950  2600 950 
Connection ~ 2600 950 
Wire Wire Line
	1000 1250 1000 1350
Wire Wire Line
	1400 1250 1400 1350
Wire Wire Line
	1400 1350 1000 1350
Connection ~ 1000 1350
Wire Wire Line
	1800 1250 1800 1350
Wire Wire Line
	1800 1350 1400 1350
Connection ~ 1400 1350
Wire Wire Line
	2200 1250 2200 1350
Wire Wire Line
	2200 1350 1800 1350
Connection ~ 1800 1350
Wire Wire Line
	2600 1250 2600 1350
Wire Wire Line
	2600 1350 2200 1350
Connection ~ 2200 1350
Wire Wire Line
	3000 1250 3000 1350
Wire Wire Line
	3000 1350 2600 1350
Connection ~ 2600 1350
Wire Wire Line
	3400 1250 3400 1350
Wire Wire Line
	3400 1050 3400 950 
Wire Wire Line
	3800 1050 3800 950 
Wire Wire Line
	3800 950  3400 950 
Wire Wire Line
	4200 1050 4200 950 
Wire Wire Line
	4200 950  3800 950 
Connection ~ 3800 950 
Wire Wire Line
	4600 1050 4600 950 
Wire Wire Line
	4600 950  4200 950 
Connection ~ 4200 950 
Wire Wire Line
	5000 1050 5000 950 
Wire Wire Line
	5000 950  4600 950 
Connection ~ 4600 950 
Wire Wire Line
	5400 1050 5400 950 
Wire Wire Line
	5400 950  5000 950 
$Comp
L power:+3.3VA #PWR0124
U 1 1 5C8EB86E
P 9300 4400
F 0 "#PWR0124" H 9300 4250 50  0001 C CNN
F 1 "+3.3VA" V 9315 4528 50  0000 L CNN
F 2 "" H 9300 4400 50  0001 C CNN
F 3 "" H 9300 4400 50  0001 C CNN
	1    9300 4400
	0    1    1    0   
$EndComp
$Comp
L power:+3.3V #PWR0125
U 1 1 5C908544
P 8800 2150
F 0 "#PWR0125" H 8800 2000 50  0001 C CNN
F 1 "+3.3V" H 8815 2323 50  0000 C CNN
F 2 "" H 8800 2150 50  0001 C CNN
F 3 "" H 8800 2150 50  0001 C CNN
	1    8800 2150
	1    0    0    -1  
$EndComp
$Comp
L power:+3.3V #PWR0126
U 1 1 5C9249F7
P 1000 1950
F 0 "#PWR0126" H 1000 1800 50  0001 C CNN
F 1 "+3.3V" H 1015 2123 50  0000 C CNN
F 2 "" H 1000 1950 50  0001 C CNN
F 3 "" H 1000 1950 50  0001 C CNN
	1    1000 1950
	1    0    0    -1  
$EndComp
$Comp
L power:GND #PWR0127
U 1 1 5C9249FD
P 1000 2350
F 0 "#PWR0127" H 1000 2100 50  0001 C CNN
F 1 "GND" H 1005 2177 50  0000 C CNN
F 2 "" H 1000 2350 50  0001 C CNN
F 3 "" H 1000 2350 50  0001 C CNN
	1    1000 2350
	1    0    0    -1  
$EndComp
Wire Wire Line
	1000 2250 1000 2350
Wire Wire Line
	1000 2050 1000 1950
Wire Wire Line
	2000 4200 2000 4100
Wire Wire Line
	2000 4100 2000 4000
Connection ~ 2000 4100
Wire Wire Line
	2000 4000 2000 3900
Connection ~ 2000 4000
Wire Wire Line
	2000 3900 2000 3800
Connection ~ 2000 3900
Wire Wire Line
	2000 3800 2000 3700
Connection ~ 2000 3800
Wire Wire Line
	2000 3700 2000 3600
Connection ~ 2000 3700
Wire Wire Line
	2000 3600 2000 3500
Connection ~ 2000 3600
Wire Wire Line
	2000 3500 2000 3400
Connection ~ 2000 3500
Wire Wire Line
	2000 3400 2000 3300
Connection ~ 2000 3400
Wire Wire Line
	5400 1350 5000 1350
Wire Wire Line
	5400 1250 5400 1350
Wire Wire Line
	5000 1250 5000 1350
Wire Wire Line
	5000 1350 4600 1350
Connection ~ 4600 1350
Wire Wire Line
	4600 1250 4600 1350
Wire Wire Line
	4600 1350 4200 1350
Connection ~ 4200 1350
Wire Wire Line
	4200 1250 4200 1350
Wire Wire Line
	4200 1350 3800 1350
Wire Wire Line
	3800 1350 3400 1350
Connection ~ 3800 1350
Wire Wire Line
	3800 1250 3800 1350
$Comp
L Device:C_Small C17
U 1 1 5CB09788
P 3800 1150
F 0 "C17" H 3892 1196 50  0000 L CNN
F 1 "100nF" H 3892 1105 50  0000 L CNN
F 2 "Capacitor_SMD:C_0603_1608Metric" H 3800 1150 50  0001 C CNN
F 3 "~" H 3800 1150 50  0001 C CNN
	1    3800 1150
	1    0    0    -1  
$EndComp
$Comp
L Device:C_Small C18
U 1 1 5CB18406
P 4200 1150
F 0 "C18" H 4292 1196 50  0000 L CNN
F 1 "100nF" H 4292 1105 50  0000 L CNN
F 2 "Capacitor_SMD:C_0603_1608Metric" H 4200 1150 50  0001 C CNN
F 3 "~" H 4200 1150 50  0001 C CNN
	1    4200 1150
	1    0    0    -1  
$EndComp
$Comp
L Device:C_Small C19
U 1 1 5CB2708A
P 4600 1150
F 0 "C19" H 4692 1196 50  0000 L CNN
F 1 "100nF" H 4692 1105 50  0000 L CNN
F 2 "Capacitor_SMD:C_0603_1608Metric" H 4600 1150 50  0001 C CNN
F 3 "~" H 4600 1150 50  0001 C CNN
	1    4600 1150
	1    0    0    -1  
$EndComp
$Comp
L Device:C_Small C20
U 1 1 5CB35D18
P 5000 1150
F 0 "C20" H 5092 1196 50  0000 L CNN
F 1 "100nF" H 5092 1105 50  0000 L CNN
F 2 "Capacitor_SMD:C_0603_1608Metric" H 5000 1150 50  0001 C CNN
F 3 "~" H 5000 1150 50  0001 C CNN
	1    5000 1150
	1    0    0    -1  
$EndComp
$Comp
L Device:C_Small C21
U 1 1 5CB449B4
P 5400 1150
F 0 "C21" H 5492 1196 50  0000 L CNN
F 1 "100nF" H 5492 1105 50  0000 L CNN
F 2 "Capacitor_SMD:C_0603_1608Metric" H 5400 1150 50  0001 C CNN
F 3 "~" H 5400 1150 50  0001 C CNN
	1    5400 1150
	1    0    0    -1  
$EndComp
$Comp
L Device:C_Small C10
U 1 1 5CB5367C
P 1000 1150
F 0 "C10" H 1092 1196 50  0000 L CNN
F 1 "100nF" H 1092 1105 50  0000 L CNN
F 2 "Capacitor_SMD:C_0603_1608Metric" H 1000 1150 50  0001 C CNN
F 3 "~" H 1000 1150 50  0001 C CNN
	1    1000 1150
	1    0    0    -1  
$EndComp
$Comp
L Device:C_Small C11
U 1 1 5CB62316
P 1400 1150
F 0 "C11" H 1492 1196 50  0000 L CNN
F 1 "100nF" H 1492 1105 50  0000 L CNN
F 2 "Capacitor_SMD:C_0603_1608Metric" H 1400 1150 50  0001 C CNN
F 3 "~" H 1400 1150 50  0001 C CNN
	1    1400 1150
	1    0    0    -1  
$EndComp
$Comp
L Device:C_Small C12
U 1 1 5CB70FAC
P 1800 1150
F 0 "C12" H 1892 1196 50  0000 L CNN
F 1 "100nF" H 1892 1105 50  0000 L CNN
F 2 "Capacitor_SMD:C_0603_1608Metric" H 1800 1150 50  0001 C CNN
F 3 "~" H 1800 1150 50  0001 C CNN
	1    1800 1150
	1    0    0    -1  
$EndComp
$Comp
L Device:C_Small C13
U 1 1 5CB7FC4A
P 2200 1150
F 0 "C13" H 2292 1196 50  0000 L CNN
F 1 "100nF" H 2292 1105 50  0000 L CNN
F 2 "Capacitor_SMD:C_0603_1608Metric" H 2200 1150 50  0001 C CNN
F 3 "~" H 2200 1150 50  0001 C CNN
	1    2200 1150
	1    0    0    -1  
$EndComp
$Comp
L Device:C_Small C14
U 1 1 5CB8E8E2
P 2600 1150
F 0 "C14" H 2692 1196 50  0000 L CNN
F 1 "100nF" H 2692 1105 50  0000 L CNN
F 2 "Capacitor_SMD:C_0603_1608Metric" H 2600 1150 50  0001 C CNN
F 3 "~" H 2600 1150 50  0001 C CNN
	1    2600 1150
	1    0    0    -1  
$EndComp
$Comp
L Device:C_Small C15
U 1 1 5CB9D580
P 3000 1150
F 0 "C15" H 3092 1196 50  0000 L CNN
F 1 "100nF" H 3092 1105 50  0000 L CNN
F 2 "Capacitor_SMD:C_0603_1608Metric" H 3000 1150 50  0001 C CNN
F 3 "~" H 3000 1150 50  0001 C CNN
	1    3000 1150
	1    0    0    -1  
$EndComp
Wire Wire Line
	10700 5800 10700 5900
$Comp
L Device:C_Small C22
U 1 1 5CBCA402
P 10700 5700
F 0 "C22" H 10792 5746 50  0000 L CNN
F 1 "100nF" H 10792 5655 50  0000 L CNN
F 2 "Capacitor_SMD:C_0603_1608Metric" H 10700 5700 50  0001 C CNN
F 3 "~" H 10700 5700 50  0001 C CNN
	1    10700 5700
	1    0    0    -1  
$EndComp
$Comp
L Switch:SW_Push SW2
U 1 1 5CBF0370
P 10100 2400
F 0 "SW2" H 10100 2685 50  0000 C CNN
F 1 "RESET" H 10100 2594 50  0000 C CNN
F 2 "Button_Switch_SMD:SW_SPST_KMR2" H 10100 2600 50  0001 C CNN
F 3 "https://www.ckswitches.com/media/1479/kmr2.pdf" H 10100 2600 50  0001 C CNN
	1    10100 2400
	1    0    0    -1  
$EndComp
$Comp
L power:GND #PWR0128
U 1 1 5CC0DDA2
P 10400 2850
F 0 "#PWR0128" H 10400 2600 50  0001 C CNN
F 1 "GND" H 10405 2677 50  0000 C CNN
F 2 "" H 10400 2850 50  0001 C CNN
F 3 "" H 10400 2850 50  0001 C CNN
	1    10400 2850
	1    0    0    -1  
$EndComp
$Comp
L Device:C_Small C24
U 1 1 5CC3A223
P 10100 2750
F 0 "C24" V 9871 2750 50  0000 C CNN
F 1 "100nF" V 9962 2750 50  0000 C CNN
F 2 "Capacitor_SMD:C_0603_1608Metric" H 10100 2750 50  0001 C CNN
F 3 "~" H 10100 2750 50  0001 C CNN
	1    10100 2750
	0    1    1    0   
$EndComp
Wire Wire Line
	10300 2400 10400 2400
Wire Wire Line
	10400 2400 10400 2750
Wire Wire Line
	10200 2750 10400 2750
Connection ~ 10400 2750
Wire Wire Line
	10400 2750 10400 2850
Wire Wire Line
	9900 2400 9800 2400
Wire Wire Line
	8900 2300 8900 2400
Wire Wire Line
	10000 2750 9800 2750
Wire Wire Line
	9800 2750 9800 2400
Text GLabel 8900 2300 1    50   Input ~ 0
NRST
Wire Wire Line
	9800 2400 8900 2400
Connection ~ 9800 2400
Connection ~ 8900 2400
Wire Wire Line
	8900 2400 8900 2500
Wire Wire Line
	8200 2150 8200 2500
Wire Wire Line
	8800 2150 8800 2500
$Comp
L Device:R_Small R14
U 1 1 5CD02B0C
P 8900 1850
F 0 "R14" V 8704 1850 50  0000 C CNN
F 1 "10K/5%" V 8795 1850 50  0000 C CNN
F 2 "Resistor_SMD:R_0603_1608Metric" H 8900 1850 50  0001 C CNN
F 3 "~" H 8900 1850 50  0001 C CNN
	1    8900 1850
	0    1    1    0   
$EndComp
$Comp
L power:GND #PWR0129
U 1 1 5CD2298B
P 9100 1850
F 0 "#PWR0129" H 9100 1600 50  0001 C CNN
F 1 "GND" V 9105 1722 50  0000 R CNN
F 2 "" H 9100 1850 50  0001 C CNN
F 3 "" H 9100 1850 50  0001 C CNN
	1    9100 1850
	0    -1   -1   0   
$EndComp
Wire Wire Line
	9000 1850 9100 1850
Wire Wire Line
	8600 2500 8600 1850
Text GLabel 6800 2300 1    50   Output ~ 0
FMC_BA0
Text GLabel 6700 2300 1    50   Output ~ 0
FMC_BA1
Wire Wire Line
	6700 2500 6700 2300
Wire Wire Line
	6800 2500 6800 2300
Text GLabel 7800 5200 3    50   Input ~ 0
LPUART1_CTS
Text GLabel 7700 5200 3    50   Output ~ 0
LPUART1_RTS
Wire Wire Line
	7700 5000 7700 5200
Wire Wire Line
	7800 5000 7800 5200
Wire Wire Line
	6600 5000 6600 5200
Wire Wire Line
	6500 5000 6500 5200
Text GLabel 5900 5200 3    50   Output ~ 0
SPI2_SLK
Text GLabel 6000 5200 3    50   Output ~ 0
SPI2_NSS
Text GLabel 5800 5200 3    50   Input ~ 0
SPI2_MISO
Text GLabel 5700 5200 3    50   Output ~ 0
SPI2_MOSI
Wire Wire Line
	5700 5000 5700 5200
Wire Wire Line
	5800 5000 5800 5200
Wire Wire Line
	5900 5000 5900 5200
Wire Wire Line
	6000 5000 6000 5200
Text GLabel 5100 5200 3    50   Output ~ 0
AUDIO_OUT
Wire Wire Line
	6700 5000 6700 5200
Wire Wire Line
	8200 5000 8200 5200
Text GLabel 5300 5200 3    50   Input ~ 0
TS_XR
Text GLabel 5200 5200 3    50   Input ~ 0
TS_YD
Text GLabel 4700 2300 1    50   Input ~ 0
TS_XL
Text GLabel 4600 2300 1    50   Input ~ 0
TS_YU
Wire Wire Line
	4700 2300 4700 2500
Wire Wire Line
	4600 2300 4600 2500
Text GLabel 5400 5200 3    50   Input ~ 0
BATT_VOLTAGE
Wire Wire Line
	5400 5000 5400 5200
Wire Wire Line
	5300 5000 5300 5200
Wire Wire Line
	5200 5000 5200 5200
Text GLabel 8900 5200 3    50   Output ~ 0
LCD_BL_EN
Text GLabel 8700 5200 3    50   Output ~ 0
LED_STATUS_RED
Wire Wire Line
	8900 5000 8900 5200
Wire Wire Line
	8700 5000 8700 5200
Text GLabel 2600 5200 3    50   Output ~ 0
LED_STATUS_GREEN
Text GLabel 2500 5200 3    50   Output ~ 0
LED_STATUS_BLUE
Wire Wire Line
	2600 5000 2600 5200
Wire Wire Line
	2500 5000 2500 5200
Connection ~ 5000 950 
Connection ~ 5000 1350
Wire Wire Line
	3000 950  3400 950 
Connection ~ 3000 950 
Connection ~ 3400 950 
Wire Wire Line
	3400 1350 3000 1350
Connection ~ 3400 1350
Connection ~ 3000 1350
Text GLabel 4200 5200 3    50   Input ~ 0
SDMMC1_DET
Text GLabel 6300 2300 1    50   Input ~ 0
POWER
Text GLabel 3200 2300 1    50   Input ~ 0
EXT_SPARE
Wire Wire Line
	3200 2300 3200 2500
Wire Wire Line
	3300 2300 3300 2500
Wire Wire Line
	3400 2300 3400 2500
Wire Wire Line
	3500 2300 3500 2500
Wire Wire Line
	3600 2300 3600 2500
Wire Wire Line
	3100 5000 3100 5200
Wire Wire Line
	2700 5000 2700 5200
NoConn ~ 3300 5000
Wire Wire Line
	4200 5000 4200 5200
Wire Wire Line
	4300 5000 4300 5200
Wire Wire Line
	4100 5000 4100 5900
Wire Wire Line
	4000 5000 4000 5900
Text GLabel 4300 5200 3    50   Output ~ 0
SDMMC1_CK
Text GLabel 3600 2300 1    50   Input ~ 0
USB_CBUS0
Text GLabel 3500 2300 1    50   Input ~ 0
USB_CBUS1
Text GLabel 3400 2300 1    50   Input ~ 0
USB_CBUS2
Text GLabel 3300 2300 1    50   Input ~ 0
USB_CBUS3
Text GLabel 3100 5200 3    50   Input ~ 0
LCD_FMARK
Text GLabel 2700 5200 3    50   Input ~ 0
BATT_CHARGED
Wire Wire Line
	6300 2300 6300 2500
Text GLabel 6100 2300 1    50   Input ~ 0
BTN_IN0
Text GLabel 6000 2300 1    50   Input ~ 0
BTN_IN1
Text GLabel 5900 2300 1    50   Input ~ 0
BTN_IN2
Text GLabel 5800 2300 1    50   Input ~ 0
BTN_IN3
Wire Wire Line
	5800 2300 5800 2500
Wire Wire Line
	5900 2300 5900 2500
Wire Wire Line
	6000 2300 6000 2500
Wire Wire Line
	6100 2300 6100 2500
Text GLabel 4900 2300 1    50   Output ~ 0
BTN_OUT0
Text GLabel 4800 2300 1    50   Output ~ 0
BTN_OUT1
Text GLabel 6900 2300 1    50   Output ~ 0
BTN_OUT2
Wire Wire Line
	6900 2300 6900 2500
Wire Wire Line
	4900 2300 4900 2500
Wire Wire Line
	4800 2300 4800 2500
Text GLabel 7000 5200 3    50   Output ~ 0
LCD_RESET
Wire Wire Line
	7000 5000 7000 5200
Text GLabel 5000 5200 3    50   Output ~ 0
BATT_CURRENT
Wire Wire Line
	5000 5000 5000 5200
Text GLabel 3400 5200 3    50   Output ~ 0
AUDIO_NSTANDBY
Wire Wire Line
	3400 5000 3400 5200
Wire Wire Line
	8400 1750 8400 2500
Wire Wire Line
	8400 1550 8400 1250
Wire Wire Line
	7450 950  7450 1000
Wire Wire Line
	7100 1000 7450 1000
Wire Wire Line
	7100 1000 7100 1100
Connection ~ 7450 1000
Wire Wire Line
	7450 1000 7450 1400
Wire Wire Line
	7450 1000 7800 1000
Wire Wire Line
	7800 1000 7800 1100
Wire Wire Line
	8400 950  8400 1250
Connection ~ 8400 1250
$Comp
L Connector:Conn_01x10_Female J4
U 1 1 5C65CCE9
P 2300 6800
F 0 "J4" H 2327 6776 50  0000 L CNN
F 1 "M20-7911042R" H 2327 6685 50  0000 L CNN
F 2 "Footprints:Harwin_M20-7911042R_1x10_P2.54_Horizontal" H 2300 6800 50  0001 C CNN
F 3 "https://cdn.harwin.com/pdfs/M20-791R.pdf" H 2300 6800 50  0001 C CNN
	1    2300 6800
	1    0    0    -1  
$EndComp
$Comp
L power:GND #PWR0130
U 1 1 5C65CCF0
P 1200 6400
F 0 "#PWR0130" H 1200 6150 50  0001 C CNN
F 1 "GND" V 1205 6272 50  0000 R CNN
F 2 "" H 1200 6400 50  0001 C CNN
F 3 "" H 1200 6400 50  0001 C CNN
	1    1200 6400
	0    1    1    0   
$EndComp
$Comp
L power:VBUS #PWR0131
U 1 1 5C65CCF6
P 1200 7300
F 0 "#PWR0131" H 1200 7150 50  0001 C CNN
F 1 "VBUS" V 1215 7427 50  0000 L CNN
F 2 "" H 1200 7300 50  0001 C CNN
F 3 "" H 1200 7300 50  0001 C CNN
	1    1200 7300
	0    -1   -1   0   
$EndComp
$Comp
L power:+3.3V #PWR0132
U 1 1 5C65CCFC
P 1200 6900
F 0 "#PWR0132" H 1200 6750 50  0001 C CNN
F 1 "+3.3V" V 1215 7028 50  0000 L CNN
F 2 "" H 1200 6900 50  0001 C CNN
F 3 "" H 1200 6900 50  0001 C CNN
	1    1200 6900
	0    -1   -1   0   
$EndComp
Text GLabel 1200 6500 0    50   Output ~ 0
JTDI
Text GLabel 1200 6800 0    50   Input ~ 0
JTDO
Text GLabel 1200 6600 0    50   Output ~ 0
JTMS
Text GLabel 1200 6700 0    50   Output ~ 0
JTCK
Text GLabel 1200 7000 0    50   Output ~ 0
NJTRST
Text GLabel 1200 7100 0    50   Output ~ 0
NRST
Text GLabel 1200 7200 0    50   BiDi ~ 0
EXT_SPARE
$Comp
L Switch:SW_SPDT SW1
U 1 1 5C644AD6
P 10100 1200
F 0 "SW1" H 10100 1485 50  0000 C CNN
F 1 "POWER" H 10100 1394 50  0000 C CNN
F 2 "Button_Switch_SMD:SW_SPDT_CK-JS102011SAQN" H 10100 1200 50  0001 C CNN
F 3 "https://www.ckswitches.com/media/1422/js.pdf" H 10100 1200 50  0001 C CNN
	1    10100 1200
	1    0    0    -1  
$EndComp
$Comp
L Device:C_Small C23
U 1 1 5C65E6D2
P 10100 1700
F 0 "C23" V 9871 1700 50  0000 C CNN
F 1 "100nF" V 9962 1700 50  0000 C CNN
F 2 "Capacitor_SMD:C_0603_1608Metric" H 10100 1700 50  0001 C CNN
F 3 "~" H 10100 1700 50  0001 C CNN
	1    10100 1700
	0    1    1    0   
$EndComp
Wire Wire Line
	10200 1700 10400 1700
Wire Wire Line
	10000 1700 9800 1700
Wire Wire Line
	10400 1100 10300 1100
Wire Wire Line
	10400 1100 10400 1700
Wire Wire Line
	9900 1200 9800 1200
Wire Wire Line
	9800 1200 9800 1700
Text GLabel 10400 1100 2    50   Input ~ 0
POWER
NoConn ~ 10300 1300
Wire Wire Line
	2000 4200 2000 4350
Connection ~ 2000 4200
$Comp
L Device:R_Small R2
U 1 1 5C6A237B
P 1500 6500
F 0 "R2" V 1696 6500 50  0000 C CNN
F 1 "22/5%" V 1605 6500 50  0000 C CNN
F 2 "Resistor_SMD:R_0603_1608Metric" H 1500 6500 50  0001 C CNN
F 3 "~" H 1500 6500 50  0001 C CNN
	1    1500 6500
	0    -1   -1   0   
$EndComp
$Comp
L Device:R_Small R3
U 1 1 5C6BB320
P 1700 6600
F 0 "R3" V 1896 6600 50  0000 C CNN
F 1 "22/5%" V 1805 6600 50  0000 C CNN
F 2 "Resistor_SMD:R_0603_1608Metric" H 1700 6600 50  0001 C CNN
F 3 "~" H 1700 6600 50  0001 C CNN
	1    1700 6600
	0    -1   -1   0   
$EndComp
$Comp
L Device:R_Small R4
U 1 1 5C6D4090
P 1900 6700
F 0 "R4" V 2096 6700 50  0000 C CNN
F 1 "22/5%" V 2005 6700 50  0000 C CNN
F 2 "Resistor_SMD:R_0603_1608Metric" H 1900 6700 50  0001 C CNN
F 3 "~" H 1900 6700 50  0001 C CNN
	1    1900 6700
	0    -1   -1   0   
$EndComp
$Comp
L Device:R_Small R5
U 1 1 5C6ECDF4
P 1500 6800
F 0 "R5" V 1696 6800 50  0000 C CNN
F 1 "22/5%" V 1605 6800 50  0000 C CNN
F 2 "Resistor_SMD:R_0603_1608Metric" H 1500 6800 50  0001 C CNN
F 3 "~" H 1500 6800 50  0001 C CNN
	1    1500 6800
	0    -1   -1   0   
$EndComp
$Comp
L Device:R_Small R6
U 1 1 5C705B48
P 1700 7000
F 0 "R6" V 1896 7000 50  0000 C CNN
F 1 "22/5%" V 1805 7000 50  0000 C CNN
F 2 "Resistor_SMD:R_0603_1608Metric" H 1700 7000 50  0001 C CNN
F 3 "~" H 1700 7000 50  0001 C CNN
	1    1700 7000
	0    -1   -1   0   
$EndComp
$Comp
L Device:R_Small R7
U 1 1 5C71E8A4
P 1900 7100
F 0 "R7" V 2096 7100 50  0000 C CNN
F 1 "22/5%" V 2005 7100 50  0000 C CNN
F 2 "Resistor_SMD:R_0603_1608Metric" H 1900 7100 50  0001 C CNN
F 3 "~" H 1900 7100 50  0001 C CNN
	1    1900 7100
	0    -1   -1   0   
$EndComp
Wire Wire Line
	1200 6500 1400 6500
Wire Wire Line
	1200 6600 1600 6600
Wire Wire Line
	1200 6700 1800 6700
Wire Wire Line
	1200 6800 1400 6800
Wire Wire Line
	1200 7000 1600 7000
Wire Wire Line
	1200 7100 1800 7100
Wire Wire Line
	2100 7300 1200 7300
Wire Wire Line
	1200 7200 2100 7200
Wire Wire Line
	2100 7100 2000 7100
Wire Wire Line
	1800 7000 2100 7000
Wire Wire Line
	2100 6900 1200 6900
Wire Wire Line
	1600 6800 2100 6800
Wire Wire Line
	2000 6700 2100 6700
Wire Wire Line
	2100 6600 1800 6600
Wire Wire Line
	1600 6500 2100 6500
Wire Wire Line
	2100 6400 1200 6400
Wire Wire Line
	10700 5500 10500 5500
Wire Wire Line
	10700 5900 10500 5900
$Comp
L Device:C_Small C42
U 1 1 5C810246
P 1000 2150
F 0 "C42" H 1092 2196 50  0000 L CNN
F 1 "4.7uF/16V" H 1092 2105 50  0000 L CNN
F 2 "Capacitor_SMD:C_0603_1608Metric" H 1000 2150 50  0001 C CNN
F 3 "~" H 1000 2150 50  0001 C CNN
	1    1000 2150
	1    0    0    -1  
$EndComp
$Comp
L Device:C_Small C41
U 1 1 5CC2CA56
P 8400 1650
F 0 "C41" H 8492 1696 50  0000 L CNN
F 1 "2.2uF/10V" H 8492 1605 50  0000 L CNN
F 2 "Capacitor_SMD:C_0603_1608Metric" H 8400 1650 50  0001 C CNN
F 3 "~" H 8400 1650 50  0001 C CNN
	1    8400 1650
	1    0    0    -1  
$EndComp
$Comp
L Device:C_Small C40
U 1 1 5CC92210
P 8300 1450
F 0 "C40" H 8208 1404 50  0000 R CNN
F 1 "2.2uF/10V" H 8208 1495 50  0000 R CNN
F 2 "Capacitor_SMD:C_0603_1608Metric" H 8300 1450 50  0001 C CNN
F 3 "~" H 8300 1450 50  0001 C CNN
	1    8300 1450
	1    0    0    1   
$EndComp
$Comp
L Device:Ferrite_Bead_Small FB1
U 1 1 5C68D3BC
P 10050 5500
F 0 "FB1" V 9813 5500 50  0000 C CNN
F 1 "350mA/600R" V 9904 5500 50  0000 C CNN
F 2 "Inductor_SMD:L_0603_1608Metric" V 9980 5500 50  0001 C CNN
F 3 "~" H 10050 5500 50  0001 C CNN
	1    10050 5500
	0    1    1    0   
$EndComp
Wire Wire Line
	9600 5500 9950 5500
Wire Wire Line
	10150 5500 10500 5500
Wire Wire Line
	8600 1850 8800 1850
$Comp
L power:GND #PWR0160
U 1 1 5C7ADF20
P 9800 1800
F 0 "#PWR0160" H 9800 1550 50  0001 C CNN
F 1 "GND" H 9805 1627 50  0000 C CNN
F 2 "" H 9800 1800 50  0001 C CNN
F 3 "" H 9800 1800 50  0001 C CNN
	1    9800 1800
	1    0    0    -1  
$EndComp
Wire Wire Line
	9800 1700 9800 1800
Connection ~ 9800 1700
$EndSCHEMATC
