EESchema Schematic File Version 4
LIBS:f100-cache
EELAYER 26 0
EELAYER END
$Descr A4 11693 8268
encoding utf-8
Sheet 3 3
Title "Memory & Connectors"
Date "2019-02-09"
Rev "1"
Comp ""
Comment1 ""
Comment2 ""
Comment3 ""
Comment4 ""
$EndDescr
Text GLabel 3050 1100 2    50   BiDi ~ 0
FMC_D0
Text GLabel 3050 1200 2    50   BiDi ~ 0
FMC_D1
Text GLabel 3050 1300 2    50   BiDi ~ 0
FMC_D2
Text GLabel 3050 1400 2    50   BiDi ~ 0
FMC_D3
Text GLabel 3050 1500 2    50   BiDi ~ 0
FMC_D4
Text GLabel 3050 1600 2    50   BiDi ~ 0
FMC_D5
Text GLabel 3050 1700 2    50   BiDi ~ 0
FMC_D6
Text GLabel 3050 1800 2    50   BiDi ~ 0
FMC_D7
Text GLabel 3050 1900 2    50   BiDi ~ 0
FMC_D8
Text GLabel 3050 2000 2    50   BiDi ~ 0
FMC_D9
Text GLabel 3050 2100 2    50   BiDi ~ 0
FMC_D10
Text GLabel 3050 2200 2    50   BiDi ~ 0
FMC_D11
Text GLabel 3050 2300 2    50   BiDi ~ 0
FMC_D12
Text GLabel 3050 2400 2    50   BiDi ~ 0
FMC_D13
Text GLabel 3050 2500 2    50   BiDi ~ 0
FMC_D14
Text GLabel 3050 2600 2    50   BiDi ~ 0
FMC_D15
Wire Wire Line
	2950 1100 3050 1100
Wire Wire Line
	2950 1200 3050 1200
Wire Wire Line
	2950 1300 3050 1300
Wire Wire Line
	2950 1400 3050 1400
Wire Wire Line
	3050 1500 2950 1500
Wire Wire Line
	2950 1600 3050 1600
Wire Wire Line
	3050 1700 2950 1700
Wire Wire Line
	2950 1800 3050 1800
Wire Wire Line
	3050 1900 2950 1900
Wire Wire Line
	2950 2000 3050 2000
Wire Wire Line
	3050 2100 2950 2100
Wire Wire Line
	2950 2200 3050 2200
Wire Wire Line
	3050 2300 2950 2300
Wire Wire Line
	2950 2400 3050 2400
Wire Wire Line
	3050 2500 2950 2500
Wire Wire Line
	2950 2600 3050 2600
Text GLabel 1250 1100 0    50   Input ~ 0
FMC_A0
Text GLabel 1250 1200 0    50   Input ~ 0
FMC_A1
Text GLabel 1250 1300 0    50   Input ~ 0
FMC_A2
Text GLabel 1250 1400 0    50   Input ~ 0
FMC_A3
Text GLabel 1250 1500 0    50   Input ~ 0
FMC_A4
Text GLabel 1250 1600 0    50   Input ~ 0
FMC_A5
Text GLabel 1250 1700 0    50   Input ~ 0
FMC_A6
Text GLabel 1250 1800 0    50   Input ~ 0
FMC_A7
Text GLabel 1250 1900 0    50   Input ~ 0
FMC_A8
Text GLabel 1250 2000 0    50   Input ~ 0
FMC_A9
Text GLabel 1250 2100 0    50   Input ~ 0
FMC_A10
Text GLabel 1250 2200 0    50   Input ~ 0
FMC_A11
Text GLabel 1250 2300 0    50   Input ~ 0
FMC_A12
Text GLabel 1250 2700 0    50   Input ~ 0
FMC_SDCLK
Text GLabel 1250 2950 0    50   Input ~ 0
FMC_SDNRAS
Text GLabel 1250 3050 0    50   Input ~ 0
FMC_SDNCAS
Text GLabel 1250 3150 0    50   Input ~ 0
FMC_SDNWE
Text GLabel 1250 2800 0    50   Input ~ 0
FMC_SDCKE1
Text GLabel 1250 3300 0    50   Input ~ 0
FMC_SDNE1
Wire Wire Line
	1250 3300 1350 3300
Wire Wire Line
	1350 3150 1250 3150
Wire Wire Line
	1250 3050 1350 3050
Wire Wire Line
	1350 2950 1250 2950
Wire Wire Line
	1250 2800 1350 2800
Wire Wire Line
	1350 2700 1250 2700
Wire Wire Line
	1350 2300 1250 2300
Wire Wire Line
	1350 2200 1250 2200
Wire Wire Line
	1250 2100 1350 2100
Wire Wire Line
	1350 2000 1250 2000
Wire Wire Line
	1350 1900 1250 1900
Wire Wire Line
	1250 1800 1350 1800
Wire Wire Line
	1350 1700 1250 1700
Wire Wire Line
	1250 1600 1350 1600
Wire Wire Line
	1350 1500 1250 1500
Wire Wire Line
	1250 1400 1350 1400
Wire Wire Line
	1350 1300 1250 1300
Wire Wire Line
	1250 1200 1350 1200
Wire Wire Line
	1350 1100 1250 1100
Text GLabel 3050 2900 2    50   Input ~ 0
FMC_NBL0
Text GLabel 3050 3000 2    50   Input ~ 0
FMC_NBL1
Wire Wire Line
	2950 2900 3050 2900
Wire Wire Line
	3050 3000 2950 3000
Wire Wire Line
	1250 2450 1350 2450
Wire Wire Line
	1350 2550 1250 2550
Text GLabel 1250 2450 0    50   Input ~ 0
FMC_BA0
Text GLabel 1250 2550 0    50   Input ~ 0
FMC_BA1
$Comp
L Device:C_Small C29
U 1 1 5C5DBFBB
P 2550 4100
F 0 "C29" H 2642 4146 50  0000 L CNN
F 1 "100nF" H 2642 4055 50  0000 L CNN
F 2 "Capacitor_SMD:C_0603_1608Metric" H 2550 4100 50  0001 C CNN
F 3 "~" H 2550 4100 50  0001 C CNN
	1    2550 4100
	1    0    0    -1  
$EndComp
$Comp
L Device:C_Small C28
U 1 1 5C5DE848
P 2150 4100
F 0 "C28" H 2242 4146 50  0000 L CNN
F 1 "100nF" H 2242 4055 50  0000 L CNN
F 2 "Capacitor_SMD:C_0603_1608Metric" H 2150 4100 50  0001 C CNN
F 3 "~" H 2150 4100 50  0001 C CNN
	1    2150 4100
	1    0    0    -1  
$EndComp
$Comp
L power:+3.3V #PWR0133
U 1 1 5C5E109C
P 1750 850
F 0 "#PWR0133" H 1750 700 50  0001 C CNN
F 1 "+3.3V" H 1765 1023 50  0000 C CNN
F 2 "" H 1750 850 50  0001 C CNN
F 3 "" H 1750 850 50  0001 C CNN
	1    1750 850 
	1    0    0    -1  
$EndComp
$Comp
L nds36p:NDS36P U2
U 1 1 5C5C5A88
P 2150 2200
F 0 "U2" H 2150 3728 50  0000 C CNN
F 1 "NDS36PT5-20ET" H 2150 3637 50  0000 C CNN
F 2 "Package_SO:TSOP-II-54_22.2x10.16mm_P0.8mm" H 1550 3450 50  0001 C CNN
F 3 "http://insignis-tech.com/download/145" H 3450 850 50  0001 C CNN
	1    2150 2200
	1    0    0    -1  
$EndComp
Wire Wire Line
	1750 850  1850 850 
Wire Wire Line
	1950 850  2050 850 
Wire Wire Line
	1950 850  1850 850 
Connection ~ 1950 850 
Connection ~ 1850 850 
Wire Wire Line
	2050 850  2150 850 
Connection ~ 2050 850 
Wire Wire Line
	2250 850  2350 850 
Wire Wire Line
	2350 850  2450 850 
Connection ~ 2350 850 
Wire Wire Line
	2250 850  2150 850 
Connection ~ 2250 850 
Connection ~ 2150 850 
$Comp
L power:GND #PWR0134
U 1 1 5C5FB9D2
P 1750 3550
F 0 "#PWR0134" H 1750 3300 50  0001 C CNN
F 1 "GND" H 1755 3377 50  0000 C CNN
F 2 "" H 1750 3550 50  0001 C CNN
F 3 "" H 1750 3550 50  0001 C CNN
	1    1750 3550
	1    0    0    -1  
$EndComp
Wire Wire Line
	2450 3550 2350 3550
Wire Wire Line
	2350 3550 2250 3550
Connection ~ 2350 3550
Wire Wire Line
	2250 3550 2150 3550
Connection ~ 2250 3550
Wire Wire Line
	2150 3550 2050 3550
Connection ~ 2150 3550
Wire Wire Line
	2050 3550 1950 3550
Connection ~ 2050 3550
Wire Wire Line
	1950 3550 1850 3550
Connection ~ 1950 3550
Wire Wire Line
	1850 3550 1750 3550
Connection ~ 1850 3550
$Comp
L Device:C_Small C31
U 1 1 5C60D90C
P 3350 4100
F 0 "C31" H 3442 4146 50  0000 L CNN
F 1 "100nF" H 3442 4055 50  0000 L CNN
F 2 "Capacitor_SMD:C_0603_1608Metric" H 3350 4100 50  0001 C CNN
F 3 "~" H 3350 4100 50  0001 C CNN
	1    3350 4100
	1    0    0    -1  
$EndComp
$Comp
L Device:C_Small C30
U 1 1 5C60D913
P 2950 4100
F 0 "C30" H 3042 4146 50  0000 L CNN
F 1 "100nF" H 3042 4055 50  0000 L CNN
F 2 "Capacitor_SMD:C_0603_1608Metric" H 2950 4100 50  0001 C CNN
F 3 "~" H 2950 4100 50  0001 C CNN
	1    2950 4100
	1    0    0    -1  
$EndComp
Wire Wire Line
	2150 4000 2150 3900
Wire Wire Line
	2150 4300 2150 4200
Wire Wire Line
	2150 4300 2550 4300
Wire Wire Line
	2550 4300 2550 4200
Wire Wire Line
	2550 4300 2950 4300
Wire Wire Line
	2950 4300 2950 4200
Connection ~ 2550 4300
Wire Wire Line
	2950 4300 3350 4300
Wire Wire Line
	3350 4300 3350 4200
Connection ~ 2950 4300
Wire Wire Line
	2550 4000 2550 3900
Wire Wire Line
	2550 3900 2150 3900
Wire Wire Line
	2950 4000 2950 3900
Wire Wire Line
	2950 3900 2550 3900
Connection ~ 2550 3900
Wire Wire Line
	3350 4000 3350 3900
Wire Wire Line
	3350 3900 2950 3900
Connection ~ 2950 3900
$Comp
L Device:C_Small C26
U 1 1 5C6262A8
P 1350 4100
F 0 "C26" H 1442 4146 50  0000 L CNN
F 1 "100nF" H 1442 4055 50  0000 L CNN
F 2 "Capacitor_SMD:C_0603_1608Metric" H 1350 4100 50  0001 C CNN
F 3 "~" H 1350 4100 50  0001 C CNN
	1    1350 4100
	1    0    0    -1  
$EndComp
$Comp
L Device:C_Small C25
U 1 1 5C6262AF
P 950 4100
F 0 "C25" H 1042 4146 50  0000 L CNN
F 1 "100nF" H 1042 4055 50  0000 L CNN
F 2 "Capacitor_SMD:C_0603_1608Metric" H 950 4100 50  0001 C CNN
F 3 "~" H 950 4100 50  0001 C CNN
	1    950  4100
	1    0    0    -1  
$EndComp
$Comp
L Device:C_Small C27
U 1 1 5C6262B6
P 1750 4100
F 0 "C27" H 1842 4146 50  0000 L CNN
F 1 "100nF" H 1842 4055 50  0000 L CNN
F 2 "Capacitor_SMD:C_0603_1608Metric" H 1750 4100 50  0001 C CNN
F 3 "~" H 1750 4100 50  0001 C CNN
	1    1750 4100
	1    0    0    -1  
$EndComp
$Comp
L power:GND #PWR0135
U 1 1 5C6262BD
P 950 4300
F 0 "#PWR0135" H 950 4050 50  0001 C CNN
F 1 "GND" H 955 4127 50  0000 C CNN
F 2 "" H 950 4300 50  0001 C CNN
F 3 "" H 950 4300 50  0001 C CNN
	1    950  4300
	1    0    0    -1  
$EndComp
$Comp
L power:+3.3V #PWR0136
U 1 1 5C6262C3
P 950 3900
F 0 "#PWR0136" H 950 3750 50  0001 C CNN
F 1 "+3.3V" H 965 4073 50  0000 C CNN
F 2 "" H 950 3900 50  0001 C CNN
F 3 "" H 950 3900 50  0001 C CNN
	1    950  3900
	1    0    0    -1  
$EndComp
Wire Wire Line
	950  4000 950  3900
Wire Wire Line
	950  4300 950  4200
Wire Wire Line
	950  4300 1350 4300
Wire Wire Line
	1350 4300 1350 4200
Connection ~ 950  4300
Wire Wire Line
	1350 4300 1750 4300
Wire Wire Line
	1750 4300 1750 4200
Connection ~ 1350 4300
Wire Wire Line
	1350 4000 1350 3900
Wire Wire Line
	1350 3900 950  3900
Connection ~ 950  3900
Wire Wire Line
	1750 4000 1750 3900
Wire Wire Line
	1750 3900 1350 3900
Connection ~ 1350 3900
Wire Wire Line
	1750 3900 2150 3900
Connection ~ 1750 3900
Connection ~ 2150 3900
Wire Wire Line
	2150 4300 1750 4300
Connection ~ 2150 4300
Connection ~ 1750 4300
$Comp
L Connector:Micro_SD_Card_Det J1
U 1 1 5C63F8CB
P 9900 1550
F 0 "J1" H 9850 2367 50  0000 C CNN
F 1 "Molex 0473093351" H 9850 2276 50  0000 C CNN
F 2 "Footprints:microSD_HC_Molex_473093351" H 11950 2250 50  0001 C CNN
F 3 "https://www.molex.com/pdm_docs/sd/473093351_sd.pdf" H 9900 1650 50  0001 C CNN
	1    9900 1550
	1    0    0    -1  
$EndComp
Text GLabel 8900 1750 0    50   BiDi ~ 0
SDMMC1_D0
Text GLabel 8900 1850 0    50   BiDi ~ 0
SDMMC1_D1
Text GLabel 8900 1150 0    50   BiDi ~ 0
SDMMC1_D2
Text GLabel 8900 1250 0    50   BiDi ~ 0
SDMMC1_D3
Text GLabel 8900 1550 0    50   Input ~ 0
SDMMC1_CK
$Comp
L power:GND #PWR0137
U 1 1 5C64B2DB
P 7750 1650
F 0 "#PWR0137" H 7750 1400 50  0001 C CNN
F 1 "GND" V 7755 1522 50  0000 R CNN
F 2 "" H 7750 1650 50  0001 C CNN
F 3 "" H 7750 1650 50  0001 C CNN
	1    7750 1650
	0    1    1    0   
$EndComp
Wire Wire Line
	9000 1850 8900 1850
Wire Wire Line
	8900 1750 9000 1750
Wire Wire Line
	8900 1550 9000 1550
Wire Wire Line
	9000 1350 8900 1350
Wire Wire Line
	8900 1250 9000 1250
Wire Wire Line
	9000 1150 8900 1150
$Comp
L power:+3.3V #PWR0138
U 1 1 5C66115F
P 7750 1450
F 0 "#PWR0138" H 7750 1300 50  0001 C CNN
F 1 "+3.3V" V 7765 1578 50  0000 L CNN
F 2 "" H 7750 1450 50  0001 C CNN
F 3 "" H 7750 1450 50  0001 C CNN
	1    7750 1450
	0    -1   -1   0   
$EndComp
Wire Wire Line
	7750 1650 7850 1650
Connection ~ 7850 1650
$Comp
L power:GND #PWR0139
U 1 1 5C677350
P 10700 2150
F 0 "#PWR0139" H 10700 1900 50  0001 C CNN
F 1 "GND" H 10705 1977 50  0000 C CNN
F 2 "" H 10700 2150 50  0001 C CNN
F 3 "" H 10700 2150 50  0001 C CNN
	1    10700 2150
	1    0    0    -1  
$EndComp
Wire Wire Line
	10700 2050 10700 2150
Wire Wire Line
	7850 1950 7850 1650
Text GLabel 8900 2050 0    50   Output ~ 0
SDMMC1_DET
Text GLabel 8900 1350 0    50   BiDi ~ 0
SDMMC1_CMD
Wire Wire Line
	8900 2050 9000 2050
$Comp
L Connector:USB_B_Micro J2
U 1 1 5C69140A
P 9000 5650
F 0 "J2" H 9055 6117 50  0000 C CNN
F 1 "10118192-0002LF" H 9055 6026 50  0000 C CNN
F 2 "Connector_USB:USB_Micro-B_Molex_47346-0001" H 9150 5600 50  0001 C CNN
F 3 "https://www.amphenol-icc.com/media/wysiwyg/files/drawing/10118192.pdf" H 9150 5600 50  0001 C CNN
	1    9000 5650
	1    0    0    -1  
$EndComp
Wire Wire Line
	9350 4750 9350 4850
Wire Wire Line
	9550 4750 9550 4850
Wire Wire Line
	9550 4850 9350 4850
$Comp
L Interface_USB:FT230XS U6
U 1 1 5C68DC33
P 9450 4050
F 0 "U6" H 9450 4928 50  0000 C CNN
F 1 "FT230XS" H 9450 4837 50  0000 C CNN
F 2 "Package_SO:SSOP-16_3.9x4.9mm_P0.635mm" H 9900 3400 50  0001 C CNN
F 3 "http://www.ftdichip.com/Products/ICs/FT230X.html" H 9450 4050 50  0001 C CNN
	1    9450 4050
	1    0    0    -1  
$EndComp
Wire Wire Line
	9000 6050 9000 6150
Wire Wire Line
	8900 6050 8900 6150
$Comp
L Device:R_Small R10
U 1 1 5C6CE61D
P 9600 5650
F 0 "R10" V 9404 5650 50  0000 C CNN
F 1 "27/5%" V 9495 5650 50  0000 C CNN
F 2 "Resistor_SMD:R_0603_1608Metric" H 9600 5650 50  0001 C CNN
F 3 "~" H 9600 5650 50  0001 C CNN
	1    9600 5650
	0    1    1    0   
$EndComp
Text Label 10600 5750 0    50   ~ 0
USB_DM
Text Label 8650 4050 2    50   ~ 0
USB_DP
Text Label 8650 3950 2    50   ~ 0
USB_DM
$Comp
L power:GND #PWR0140
U 1 1 5C707FE2
P 9350 4850
F 0 "#PWR0140" H 9350 4600 50  0001 C CNN
F 1 "GND" H 9355 4677 50  0000 C CNN
F 2 "" H 9350 4850 50  0001 C CNN
F 3 "" H 9350 4850 50  0001 C CNN
	1    9350 4850
	1    0    0    -1  
$EndComp
Connection ~ 9350 4850
Text GLabel 8650 4250 0    50   Input ~ 0
NRST
$Comp
L power:VBUS #PWR0141
U 1 1 5C732E80
P 9150 2900
F 0 "#PWR0141" H 9150 2750 50  0001 C CNN
F 1 "VBUS" H 9165 3073 50  0000 C CNN
F 2 "" H 9150 2900 50  0001 C CNN
F 3 "" H 9150 2900 50  0001 C CNN
	1    9150 2900
	1    0    0    -1  
$EndComp
$Comp
L power:+3.3V #PWR0142
U 1 1 5C732ED3
P 9750 2900
F 0 "#PWR0142" H 9750 2750 50  0001 C CNN
F 1 "+3.3V" H 9765 3073 50  0000 C CNN
F 2 "" H 9750 2900 50  0001 C CNN
F 3 "" H 9750 2900 50  0001 C CNN
	1    9750 2900
	1    0    0    -1  
$EndComp
NoConn ~ 8750 3650
Text GLabel 10250 3650 2    50   Output ~ 0
LPUART1_RX
Text GLabel 10250 3750 2    50   Input ~ 0
LPUART1_TX
Text GLabel 10250 3850 2    50   Output ~ 0
LPUART1_CTS
Text GLabel 10250 3950 2    50   Input ~ 0
LPUART1_RTS
$Comp
L Device:C_Small C9
U 1 1 5C789456
P 10200 5950
F 0 "C9" H 10292 5996 50  0000 L CNN
F 1 "10nF" H 10292 5905 50  0000 L CNN
F 2 "Capacitor_SMD:C_0603_1608Metric" H 10200 5950 50  0001 C CNN
F 3 "~" H 10200 5950 50  0001 C CNN
	1    10200 5950
	1    0    0    -1  
$EndComp
Wire Wire Line
	8900 6150 9000 6150
$Comp
L power:GND #PWR0143
U 1 1 5C7E2EED
P 8900 6150
F 0 "#PWR0143" H 8900 5900 50  0001 C CNN
F 1 "GND" H 8905 5977 50  0000 C CNN
F 2 "" H 8900 6150 50  0001 C CNN
F 3 "" H 8900 6150 50  0001 C CNN
	1    8900 6150
	1    0    0    -1  
$EndComp
Connection ~ 8900 6150
Text Label 10600 5650 0    50   ~ 0
USB_DP
$Comp
L Device:R_Small R11
U 1 1 5C855E3D
P 10000 5750
F 0 "R11" V 9804 5750 50  0000 C CNN
F 1 "27/5%" V 9895 5750 50  0000 C CNN
F 2 "Resistor_SMD:R_0603_1608Metric" H 10000 5750 50  0001 C CNN
F 3 "~" H 10000 5750 50  0001 C CNN
	1    10000 5750
	0    1    1    0   
$EndComp
$Comp
L Device:L FB4
U 1 1 5C8887EF
P 10400 5450
F 0 "FB4" V 10590 5450 50  0000 C CNN
F 1 "1.5A/22R" V 10499 5450 50  0000 C CNN
F 2 "Inductor_SMD:L_0603_1608Metric" H 10400 5450 50  0001 C CNN
F 3 "https://ds.yuden.co.jp/TYCOMPAS/ut/detail?pn=BK1608HS220-T%20%20&u=M" H 10400 5450 50  0001 C CNN
	1    10400 5450
	0    -1   -1   0   
$EndComp
NoConn ~ 9300 5850
$Comp
L Device:C_Small C33
U 1 1 5C8A53EA
P 9950 3350
F 0 "C33" V 10179 3350 50  0000 C CNN
F 1 "100nF" V 10088 3350 50  0000 C CNN
F 2 "Capacitor_SMD:C_0603_1608Metric" H 9950 3350 50  0001 C CNN
F 3 "~" H 9950 3350 50  0001 C CNN
	1    9950 3350
	0    -1   -1   0   
$EndComp
Wire Wire Line
	10150 3350 10050 3350
$Comp
L power:GND #PWR0144
U 1 1 5C8BD7EE
P 10150 3350
F 0 "#PWR0144" H 10150 3100 50  0001 C CNN
F 1 "GND" V 10155 3222 50  0000 R CNN
F 2 "" H 10150 3350 50  0001 C CNN
F 3 "" H 10150 3350 50  0001 C CNN
	1    10150 3350
	0    -1   -1   0   
$EndComp
$Comp
L Device:C_Small C32
U 1 1 5C8C272F
P 8900 3350
F 0 "C32" V 8671 3350 50  0000 C CNN
F 1 "100nF" V 8762 3350 50  0000 C CNN
F 2 "Capacitor_SMD:C_0603_1608Metric" H 8900 3350 50  0001 C CNN
F 3 "~" H 8900 3350 50  0001 C CNN
	1    8900 3350
	0    1    1    0   
$EndComp
$Comp
L power:GND #PWR0145
U 1 1 5C8C2738
P 8550 3350
F 0 "#PWR0145" H 8550 3100 50  0001 C CNN
F 1 "GND" V 8555 3222 50  0000 R CNN
F 2 "" H 8550 3350 50  0001 C CNN
F 3 "" H 8550 3350 50  0001 C CNN
	1    8550 3350
	0    1    1    0   
$EndComp
$Comp
L Device:C_Small C5
U 1 1 5C8E5CDB
P 9400 5950
F 0 "C5" H 9492 5996 50  0000 L CNN
F 1 "47pF" H 9492 5905 50  0000 L CNN
F 2 "Capacitor_SMD:C_0603_1608Metric" H 9400 5950 50  0001 C CNN
F 3 "~" H 9400 5950 50  0001 C CNN
	1    9400 5950
	1    0    0    -1  
$EndComp
$Comp
L Device:C_Small C6
U 1 1 5C8EFE9D
P 9800 5950
F 0 "C6" H 9892 5996 50  0000 L CNN
F 1 "47pF" H 9892 5905 50  0000 L CNN
F 2 "Capacitor_SMD:C_0603_1608Metric" H 9800 5950 50  0001 C CNN
F 3 "~" H 9800 5950 50  0001 C CNN
	1    9800 5950
	1    0    0    -1  
$EndComp
Wire Wire Line
	10200 6050 10200 6150
Wire Wire Line
	9400 6050 9400 6150
Wire Wire Line
	9800 6050 9800 6150
Wire Wire Line
	10200 5850 10200 5450
Wire Wire Line
	9400 5850 9400 5650
Wire Wire Line
	9300 5750 9800 5750
Wire Wire Line
	9800 5750 9800 5850
$Comp
L power:VBUS #PWR0146
U 1 1 5C9AF3E5
P 10600 5450
F 0 "#PWR0146" H 10600 5300 50  0001 C CNN
F 1 "VBUS" V 10615 5578 50  0000 L CNN
F 2 "" H 10600 5450 50  0001 C CNN
F 3 "" H 10600 5450 50  0001 C CNN
	1    10600 5450
	0    1    1    0   
$EndComp
Wire Wire Line
	9000 6150 9400 6150
Wire Wire Line
	9400 5650 9300 5650
Connection ~ 9400 6150
Wire Wire Line
	9400 6150 9800 6150
Wire Wire Line
	9400 5650 9500 5650
Connection ~ 9400 5650
Wire Wire Line
	9700 5650 10600 5650
Wire Wire Line
	9800 5750 9900 5750
Connection ~ 9800 5750
Wire Wire Line
	10200 6150 9800 6150
Connection ~ 9800 6150
Wire Wire Line
	10550 5450 10600 5450
Wire Wire Line
	10100 5750 10600 5750
Connection ~ 10200 5450
Wire Wire Line
	10250 5450 10200 5450
Wire Wire Line
	9300 5450 10200 5450
Connection ~ 9000 6150
Wire Wire Line
	9750 2900 9750 3350
Wire Wire Line
	8650 3000 8650 3350
Wire Wire Line
	8650 3350 8550 3350
Connection ~ 8650 3350
Wire Wire Line
	9150 2900 9150 3000
Connection ~ 9150 3350
Connection ~ 9150 3000
Wire Wire Line
	9150 3000 9150 3350
Wire Wire Line
	10150 3750 10250 3750
Wire Wire Line
	10150 3650 10250 3650
Wire Wire Line
	10150 3850 10250 3850
Wire Wire Line
	10150 3950 10250 3950
Wire Wire Line
	9550 3350 9750 3350
Wire Wire Line
	9850 3350 9750 3350
Connection ~ 9750 3350
$Comp
L Conn_01x45_Female:Conn_01x45_Female J3
U 1 1 5C5DBA8D
P 6100 4400
F 0 "J3" H 6419 4461 50  0000 L CNN
F 1 "62684-451100ALF" H 6419 4370 50  0000 L CNN
F 2 "Footprints:Amphenol_62684_1x45-1MP_P0.50mm_Horizontal" H 6100 4700 50  0001 C CNN
F 3 "https://cdn.amphenol-icc.com/media/wysiwyg/files/drawing/62684.pdf" H 6100 4700 50  0001 C CNN
	1    6100 4400
	1    0    0    -1  
$EndComp
NoConn ~ 5900 2200
Text GLabel 5800 3000 0    50   Input ~ 0
LCD_CLK
Text GLabel 5800 3100 0    50   Input ~ 0
LCD_DE
Text GLabel 5800 2900 0    50   Input ~ 0
LCD_HSYNC
Text GLabel 5800 2800 0    50   Input ~ 0
LCD_VSYNC
$Comp
L power:GND #PWR0147
U 1 1 5C6112F6
P 5200 5900
F 0 "#PWR0147" H 5200 5650 50  0001 C CNN
F 1 "GND" V 5205 5772 50  0000 R CNN
F 2 "" H 5200 5900 50  0001 C CNN
F 3 "" H 5200 5900 50  0001 C CNN
	1    5200 5900
	0    1    1    0   
$EndComp
Wire Wire Line
	5900 6000 5800 6000
Wire Wire Line
	5800 6000 5800 5900
Connection ~ 5800 5900
Wire Wire Line
	5800 5900 5900 5900
Text GLabel 5800 3200 0    50   Input ~ 0
LCD_R7
Text GLabel 5800 3300 0    50   Input ~ 0
LCD_R6
Text GLabel 5800 3400 0    50   Input ~ 0
LCD_R5
Text GLabel 5800 3500 0    50   Input ~ 0
LCD_R4
Text GLabel 5800 3600 0    50   Input ~ 0
LCD_R3
Text GLabel 5800 3700 0    50   Input ~ 0
LCD_R2
Text GLabel 5800 3800 0    50   Input ~ 0
LCD_G7
Text GLabel 5800 3900 0    50   Input ~ 0
LCD_G6
Text GLabel 5800 4000 0    50   Input ~ 0
LCD_G5
Text GLabel 5800 4100 0    50   Input ~ 0
LCD_G4
Text GLabel 5800 4200 0    50   Input ~ 0
LCD_G3
Text GLabel 5800 4300 0    50   Input ~ 0
LCD_G2
Text GLabel 5800 4400 0    50   Input ~ 0
LCD_B7
Text GLabel 5800 4500 0    50   Input ~ 0
LCD_B6
Text GLabel 5800 4600 0    50   Input ~ 0
LCD_B5
Text GLabel 5800 4700 0    50   Input ~ 0
LCD_B4
Text GLabel 5800 4800 0    50   Input ~ 0
LCD_B3
Text GLabel 5800 4900 0    50   Input ~ 0
LCD_B2
Text GLabel 5800 6300 0    50   Output ~ 0
TS_XR
Text GLabel 5800 6400 0    50   Output ~ 0
TS_YD
Text GLabel 5800 6500 0    50   Output ~ 0
TS_XL
Text GLabel 5800 6600 0    50   Output ~ 0
TS_YU
Wire Wire Line
	5800 6600 5900 6600
Wire Wire Line
	5900 6500 5800 6500
Wire Wire Line
	5800 6400 5900 6400
Wire Wire Line
	5900 6300 5800 6300
Wire Wire Line
	5900 5800 5800 5800
Wire Wire Line
	5800 5800 5800 5700
Connection ~ 5800 5700
Wire Wire Line
	5800 5700 5900 5700
$Comp
L power:+3.3V #PWR0148
U 1 1 5C6EA977
P 5200 5700
F 0 "#PWR0148" H 5200 5550 50  0001 C CNN
F 1 "+3.3V" V 5215 5828 50  0000 L CNN
F 2 "" H 5200 5700 50  0001 C CNN
F 3 "" H 5200 5700 50  0001 C CNN
	1    5200 5700
	0    -1   -1   0   
$EndComp
Text GLabel 5800 5300 0    50   Input ~ 0
SPI2_SLK
Wire Wire Line
	5800 2800 5900 2800
Wire Wire Line
	5900 2900 5800 2900
Wire Wire Line
	5800 3000 5900 3000
Wire Wire Line
	5900 3100 5800 3100
Wire Wire Line
	5800 3200 5900 3200
Wire Wire Line
	5900 3300 5800 3300
Wire Wire Line
	5800 3400 5900 3400
Wire Wire Line
	5900 3500 5800 3500
Wire Wire Line
	5800 3600 5900 3600
Wire Wire Line
	5900 3700 5800 3700
Wire Wire Line
	5800 3800 5900 3800
Wire Wire Line
	5900 3900 5800 3900
Wire Wire Line
	5800 4000 5900 4000
Wire Wire Line
	5900 4100 5800 4100
Wire Wire Line
	5800 4200 5900 4200
Wire Wire Line
	5900 4300 5800 4300
Wire Wire Line
	5800 4400 5900 4400
Wire Wire Line
	5900 4500 5800 4500
Wire Wire Line
	5800 4600 5900 4600
Wire Wire Line
	5900 4700 5800 4700
Wire Wire Line
	5800 4800 5900 4800
Wire Wire Line
	5900 4900 5800 4900
Wire Wire Line
	5800 5300 5900 5300
Text GLabel 5800 5100 0    50   Input ~ 0
SPI2_MOSI
Text GLabel 5800 5000 0    50   Output ~ 0
SPI2_MISO
Text GLabel 5800 5500 0    50   Input ~ 0
SPI2_NSS
Wire Wire Line
	5900 5500 5800 5500
Wire Wire Line
	5900 5100 5800 5100
Wire Wire Line
	5900 5000 5800 5000
Text GLabel 5800 2700 0    50   Input ~ 0
LCD_RESET
Wire Wire Line
	5800 2700 5900 2700
Connection ~ 5300 5900
$Comp
L Device:Q_NPN_BEC Q1
U 1 1 5C5E4A6D
P 5250 6800
F 0 "Q1" H 5441 6846 50  0000 L CNN
F 1 "PBRN123YT,215" H 5441 6755 50  0000 L CNN
F 2 "Package_TO_SOT_SMD:SOT-23" H 5450 6900 50  0001 C CNN
F 3 "https://assets.nexperia.com/documents/data-sheet/PBRN123Y_SER.pdf" H 5250 6800 50  0001 C CNN
	1    5250 6800
	1    0    0    -1  
$EndComp
$Comp
L power:GND #PWR0149
U 1 1 5C5E4A13
P 5350 7100
F 0 "#PWR0149" H 5350 6850 50  0001 C CNN
F 1 "GND" H 5355 6927 50  0000 C CNN
F 2 "" H 5350 7100 50  0001 C CNN
F 3 "" H 5350 7100 50  0001 C CNN
	1    5350 7100
	1    0    0    -1  
$EndComp
Wire Wire Line
	5350 7000 5350 7100
$Comp
L Device:R_Small R1
U 1 1 5C5EFD15
P 5350 6500
F 0 "R1" H 5409 6546 50  0000 L CNN
F 1 "4.7/5%" H 5409 6455 50  0000 L CNN
F 2 "Resistor_SMD:R_0603_1608Metric" H 5350 6500 50  0001 C CNN
F 3 "~" H 5350 6500 50  0001 C CNN
	1    5350 6500
	-1   0    0    -1  
$EndComp
Text GLabel 4950 6800 0    50   Input ~ 0
LCD_BL_EN
Wire Wire Line
	4950 6800 5050 6800
$Comp
L Device:R_Small R12
U 1 1 5C701183
P 5500 1300
F 0 "R12" V 5304 1300 50  0000 C CNN
F 1 "178/1%" V 5395 1300 50  0000 C CNN
F 2 "Resistor_SMD:R_0603_1608Metric" H 5500 1300 50  0001 C CNN
F 3 "~" H 5500 1300 50  0001 C CNN
	1    5500 1300
	0    1    1    0   
$EndComp
$Comp
L Device:R_Small R8
U 1 1 5C70EB69
P 5300 1500
F 0 "R8" V 5104 1500 50  0000 C CNN
F 1 "30.5/1%" V 5195 1500 50  0000 C CNN
F 2 "Resistor_SMD:R_0603_1608Metric" H 5300 1500 50  0001 C CNN
F 3 "~" H 5300 1500 50  0001 C CNN
	1    5300 1500
	0    1    1    0   
$EndComp
$Comp
L Device:R_Small R9
U 1 1 5C72997B
P 5100 1700
F 0 "R9" V 4904 1700 50  0000 C CNN
F 1 "50/1%" V 4995 1700 50  0000 C CNN
F 2 "Resistor_SMD:R_0603_1608Metric" H 5100 1700 50  0001 C CNN
F 3 "~" H 5100 1700 50  0001 C CNN
	1    5100 1700
	0    1    1    0   
$EndComp
Wire Wire Line
	4900 1700 5000 1700
Wire Wire Line
	4900 1500 5200 1500
Wire Wire Line
	4900 1300 5400 1300
$Comp
L power:+3.3V #PWR0150
U 1 1 5C79904E
P 6700 1500
F 0 "#PWR0150" H 6700 1350 50  0001 C CNN
F 1 "+3.3V" V 6715 1628 50  0000 L CNN
F 2 "" H 6700 1500 50  0001 C CNN
F 3 "" H 6700 1500 50  0001 C CNN
	1    6700 1500
	0    1    1    0   
$EndComp
Wire Wire Line
	6700 1500 6600 1500
Text GLabel 4900 1300 0    50   Input ~ 0
LED_STATUS_RED
Text GLabel 4900 1500 0    50   Input ~ 0
LED_STATUS_GREEN
Text GLabel 4900 1700 0    50   Input ~ 0
LED_STATUS_BLUE
Wire Wire Line
	5600 1300 6200 1300
Wire Wire Line
	5200 1700 6200 1700
Wire Wire Line
	5400 1500 6200 1500
$Comp
L power:+3.3V #PWR0151
U 1 1 5C814076
P 5200 6100
F 0 "#PWR0151" H 5200 5950 50  0001 C CNN
F 1 "+3.3V" V 5215 6228 50  0000 L CNN
F 2 "" H 5200 6100 50  0001 C CNN
F 3 "" H 5200 6100 50  0001 C CNN
	1    5200 6100
	0    -1   -1   0   
$EndComp
$Comp
L Device:C_Small C34
U 1 1 5C92C735
P 5300 5800
F 0 "C34" H 5392 5846 50  0000 L CNN
F 1 "100nF" H 5392 5755 50  0000 L CNN
F 2 "Capacitor_SMD:C_0603_1608Metric" H 5300 5800 50  0001 C CNN
F 3 "~" H 5300 5800 50  0001 C CNN
	1    5300 5800
	1    0    0    -1  
$EndComp
Wire Wire Line
	5300 5900 5800 5900
Wire Wire Line
	5300 5700 5800 5700
Wire Wire Line
	5200 5900 5300 5900
Wire Wire Line
	5200 5700 5300 5700
Connection ~ 5300 5700
$Comp
L power:GND #PWR0152
U 1 1 5CA3144F
P 5200 5200
F 0 "#PWR0152" H 5200 4950 50  0001 C CNN
F 1 "GND" V 5205 5072 50  0000 R CNN
F 2 "" H 5200 5200 50  0001 C CNN
F 3 "" H 5200 5200 50  0001 C CNN
	1    5200 5200
	0    1    1    0   
$EndComp
Text GLabel 5800 5600 0    50   Output ~ 0
LCD_FMARK
Wire Wire Line
	5800 5600 5900 5600
Wire Wire Line
	5200 5200 5300 5200
Wire Wire Line
	5900 5400 5300 5400
Wire Wire Line
	5300 5400 5300 5200
Connection ~ 5300 5200
Wire Wire Line
	5300 5200 5900 5200
$Comp
L power:GND #PWR0153
U 1 1 5CAB8709
P 5800 2400
F 0 "#PWR0153" H 5800 2150 50  0001 C CNN
F 1 "GND" V 5805 2272 50  0000 R CNN
F 2 "" H 5800 2400 50  0001 C CNN
F 3 "" H 5800 2400 50  0001 C CNN
	1    5800 2400
	0    1    1    0   
$EndComp
$Comp
L power:+3.3V #PWR0154
U 1 1 5CAC7B12
P 5800 2500
F 0 "#PWR0154" H 5800 2350 50  0001 C CNN
F 1 "+3.3V" V 5815 2628 50  0000 L CNN
F 2 "" H 5800 2500 50  0001 C CNN
F 3 "" H 5800 2500 50  0001 C CNN
	1    5800 2500
	0    -1   -1   0   
$EndComp
$Comp
L power:+3.3V #PWR0155
U 1 1 5CAC7C0E
P 5800 2600
F 0 "#PWR0155" H 5800 2450 50  0001 C CNN
F 1 "+3.3V" V 5815 2728 50  0000 L CNN
F 2 "" H 5800 2600 50  0001 C CNN
F 3 "" H 5800 2600 50  0001 C CNN
	1    5800 2600
	0    -1   -1   0   
$EndComp
$Comp
L power:+3.3V #PWR0156
U 1 1 5CAC7CEA
P 5800 2300
F 0 "#PWR0156" H 5800 2150 50  0001 C CNN
F 1 "+3.3V" V 5815 2428 50  0000 L CNN
F 2 "" H 5800 2300 50  0001 C CNN
F 3 "" H 5800 2300 50  0001 C CNN
	1    5800 2300
	0    -1   -1   0   
$EndComp
Wire Wire Line
	5800 2300 5900 2300
Wire Wire Line
	5800 2400 5900 2400
Wire Wire Line
	5800 2500 5900 2500
Wire Wire Line
	5800 2600 5900 2600
Text GLabel 10250 4150 2    50   Output ~ 0
USB_CBUS0
Text GLabel 10250 4250 2    50   Output ~ 0
USB_CBUS1
Text GLabel 10250 4350 2    50   Output ~ 0
USB_CBUS2
Text GLabel 10250 4450 2    50   Output ~ 0
USB_CBUS3
Wire Wire Line
	10250 4450 10150 4450
Wire Wire Line
	10150 4350 10250 4350
Wire Wire Line
	10250 4250 10150 4250
Wire Wire Line
	10150 4150 10250 4150
$Comp
L power:+3.3V #PWR0157
U 1 1 5C628236
P 2400 5500
F 0 "#PWR0157" H 2400 5350 50  0001 C CNN
F 1 "+3.3V" H 2415 5673 50  0000 C CNN
F 2 "" H 2400 5500 50  0001 C CNN
F 3 "" H 2400 5500 50  0001 C CNN
	1    2400 5500
	1    0    0    -1  
$EndComp
$Comp
L Device:C_Small C38
U 1 1 5C66BC45
P 2600 5800
F 0 "C38" V 2371 5800 50  0000 C CNN
F 1 "1uF/16V" V 2462 5800 50  0000 C CNN
F 2 "Capacitor_SMD:C_0603_1608Metric" H 2600 5800 50  0001 C CNN
F 3 "~" H 2600 5800 50  0001 C CNN
	1    2600 5800
	0    1    -1   0   
$EndComp
$Comp
L power:GND #PWR0158
U 1 1 5C68EEBC
P 3100 6900
F 0 "#PWR0158" H 3100 6650 50  0001 C CNN
F 1 "GND" H 3105 6727 50  0000 C CNN
F 2 "" H 3100 6900 50  0001 C CNN
F 3 "" H 3100 6900 50  0001 C CNN
	1    3100 6900
	1    0    0    -1  
$EndComp
$Comp
L Device:C_Small C7
U 1 1 5C6A0CBF
P 3200 6700
F 0 "C7" H 3292 6746 50  0000 L CNN
F 1 "220pF" H 3292 6655 50  0000 L CNN
F 2 "Capacitor_SMD:C_0603_1608Metric" H 3200 6700 50  0001 C CNN
F 3 "~" H 3200 6700 50  0001 C CNN
	1    3200 6700
	-1   0    0    -1  
$EndComp
$Comp
L Device:C_Small C8
U 1 1 5C766ECA
P 3400 6700
F 0 "C8" H 3492 6746 50  0000 L CNN
F 1 "220pF" H 3492 6655 50  0000 L CNN
F 2 "Capacitor_SMD:C_0603_1608Metric" H 3400 6700 50  0001 C CNN
F 3 "~" H 3400 6700 50  0001 C CNN
	1    3400 6700
	1    0    0    -1  
$EndComp
Wire Wire Line
	3200 6800 3200 6900
Wire Wire Line
	3400 6800 3400 6900
Wire Wire Line
	2200 6900 3100 6900
Connection ~ 3100 6900
Wire Wire Line
	3200 6450 3200 6600
Wire Wire Line
	3400 6250 3400 6600
Wire Wire Line
	3100 6900 3200 6900
Text GLabel 1700 6450 0    50   Input ~ 0
AUDIO_NSTANDBY
$Comp
L Device:C_Small C35
U 1 1 5CA45A96
P 1600 6250
F 0 "C35" V 1371 6250 50  0000 C CNN
F 1 "100nF" V 1462 6250 50  0000 C CNN
F 2 "Capacitor_SMD:C_0603_1608Metric" H 1600 6250 50  0001 C CNN
F 3 "~" H 1600 6250 50  0001 C CNN
	1    1600 6250
	0    1    1    0   
$EndComp
Wire Wire Line
	1700 6250 1800 6250
Text GLabel 1400 6250 0    50   Input ~ 0
AUDIO_OUT
Wire Wire Line
	1400 6250 1500 6250
$Comp
L Connector_Generic:Conn_01x02 J6
U 1 1 5C66B513
P 3700 6250
F 0 "J6" H 3780 6242 50  0000 L CNN
F 1 "0532610271" H 3780 6151 50  0000 L CNN
F 2 "Connector_Molex:Molex_PicoBlade_53261-0271_1x02-1MP_P1.25mm_Horizontal" H 3700 6250 50  0001 C CNN
F 3 "https://www.molex.com/pdm_docs/sd/532610271_sd.pdf" H 3700 6250 50  0001 C CNN
	1    3700 6250
	1    0    0    -1  
$EndComp
Wire Wire Line
	3500 6350 3500 6450
Wire Wire Line
	1700 6450 1800 6450
Wire Wire Line
	2700 6250 2600 6250
Connection ~ 3200 6900
Wire Wire Line
	3200 6900 3400 6900
Wire Wire Line
	3500 6450 3200 6450
Wire Wire Line
	3400 6250 3500 6250
Connection ~ 3400 6250
Wire Wire Line
	5350 6400 5350 6200
Wire Wire Line
	5350 6200 5900 6200
$Comp
L Amplifier_Audio:PAM8301 U3
U 1 1 5C65E5EE
P 2200 6350
F 0 "U3" H 2200 6828 50  0000 C CNN
F 1 "PAM8301" H 2200 6737 50  0000 C CNN
F 2 "Package_TO_SOT_SMD:SOT-23-6" H 2200 6350 50  0001 C CNN
F 3 "https://www.diodes.com/assets/Datasheets/PAM8301.pdf" H 2200 6350 50  0001 C CNN
	1    2200 6350
	1    0    0    -1  
$EndComp
Wire Wire Line
	2200 6650 2200 6900
$Comp
L Device:C_Small C43
U 1 1 5C857BB4
P 8900 3000
F 0 "C43" V 8671 3000 50  0000 C CNN
F 1 "4.7uF/16V" V 8762 3000 50  0000 C CNN
F 2 "Capacitor_SMD:C_0603_1608Metric" H 8900 3000 50  0001 C CNN
F 3 "~" H 8900 3000 50  0001 C CNN
	1    8900 3000
	0    1    1    0   
$EndComp
Wire Wire Line
	8650 3950 8750 3950
Wire Wire Line
	8650 4050 8750 4050
Wire Wire Line
	8650 4250 8750 4250
Wire Wire Line
	9150 3350 9350 3350
Wire Wire Line
	9000 3350 9150 3350
Wire Wire Line
	8650 3350 8800 3350
Wire Wire Line
	9000 3000 9150 3000
Wire Wire Line
	8800 3000 8650 3000
$Comp
L Device:C_Small C46
U 1 1 5C9FE1E8
P 2700 5600
F 0 "C46" V 2929 5600 50  0000 C CNN
F 1 "10uF/10V" V 2838 5600 50  0000 C CNN
F 2 "Capacitor_SMD:C_0603_1608Metric" H 2700 5600 50  0001 C CNN
F 3 "~" H 2700 5600 50  0001 C CNN
	1    2700 5600
	0    -1   -1   0   
$EndComp
Wire Wire Line
	2800 5600 2900 5600
Wire Wire Line
	2400 6050 2200 6050
$Comp
L power:GND #PWR0159
U 1 1 5CB4091D
P 3000 5600
F 0 "#PWR0159" H 3000 5350 50  0001 C CNN
F 1 "GND" V 3005 5472 50  0000 R CNN
F 2 "" H 3000 5600 50  0001 C CNN
F 3 "" H 3000 5600 50  0001 C CNN
	1    3000 5600
	0    -1   -1   0   
$EndComp
$Comp
L Device:C_Small C47
U 1 1 5CB53D2F
P 5300 6000
F 0 "C47" H 5392 6046 50  0000 L CNN
F 1 "10uF/10V" H 5392 5955 50  0000 L CNN
F 2 "Capacitor_SMD:C_0603_1608Metric" H 5300 6000 50  0001 C CNN
F 3 "~" H 5300 6000 50  0001 C CNN
	1    5300 6000
	1    0    0    -1  
$EndComp
Wire Wire Line
	5200 6100 5300 6100
Connection ~ 5300 6100
Wire Wire Line
	5300 6100 5900 6100
$Comp
L Device:C_Small C45
U 1 1 5CB8D034
P 7850 1550
F 0 "C45" H 7942 1596 50  0000 L CNN
F 1 "10uF/10V" H 7942 1505 50  0000 L CNN
F 2 "Capacitor_SMD:C_0603_1608Metric" H 7850 1550 50  0001 C CNN
F 3 "~" H 7850 1550 50  0001 C CNN
	1    7850 1550
	1    0    0    -1  
$EndComp
Wire Wire Line
	7750 1450 7850 1450
Connection ~ 7850 1450
Wire Wire Line
	7850 1450 9000 1450
Wire Wire Line
	7850 1650 9000 1650
Wire Wire Line
	7850 1950 9000 1950
$Comp
L Device:LED_RAGB LD1
U 1 1 5C691EC4
P 6400 1500
F 0 "LD1" H 6400 1997 50  0000 C CNN
F 1 "XZMDKCBDDG45S-9 " H 6400 1906 50  0000 C CNN
F 2 "Footprints:LED_SunLED_PLCC4_3.2x2.8mm_P1.45mm" H 6400 1450 50  0001 C CNN
F 3 "https://www.sunledusa.com/products/spec/XZMDKCBDDG45S-9.pdf" H 6400 1450 50  0001 C CNN
	1    6400 1500
	1    0    0    -1  
$EndComp
$Comp
L Device:Ferrite_Bead_Small FB2
U 1 1 5C7239D3
P 2800 6250
F 0 "FB2" V 2563 6250 50  0000 C CNN
F 1 "2A/120R" V 2654 6250 50  0000 C CNN
F 2 "Inductor_SMD:L_0603_1608Metric" V 2730 6250 50  0001 C CNN
F 3 "https://www.murata.com/en-us/products/productdata/8796747366430/ENFA0021.pdf" H 2800 6250 50  0001 C CNN
	1    2800 6250
	0    1    1    0   
$EndComp
$Comp
L Device:Ferrite_Bead_Small FB3
U 1 1 5C73693E
P 3100 6450
F 0 "FB3" V 2863 6450 50  0000 C CNN
F 1 "2A/120R" V 2954 6450 50  0000 C CNN
F 2 "Inductor_SMD:L_0603_1608Metric" V 3030 6450 50  0001 C CNN
F 3 "https://www.murata.com/en-us/products/productdata/8796747366430/ENFA0021.pdf" H 3100 6450 50  0001 C CNN
	1    3100 6450
	0    1    1    0   
$EndComp
Wire Wire Line
	2400 5500 2400 5600
Connection ~ 3200 6450
Wire Wire Line
	2700 5800 2900 5800
Wire Wire Line
	2500 5800 2400 5800
Connection ~ 2400 5800
Wire Wire Line
	2400 5800 2400 6050
Wire Wire Line
	2600 5600 2400 5600
Connection ~ 2400 5600
Wire Wire Line
	2400 5600 2400 5800
Wire Wire Line
	2900 5800 2900 5600
Wire Wire Line
	3000 5600 2900 5600
Connection ~ 2900 5600
Wire Wire Line
	2900 6250 3400 6250
Wire Wire Line
	2600 6450 3000 6450
$EndSCHEMATC
